<?xml version="1.0" encoding="UTF-8" standalone="no"?>
<svg
   xmlns:dc="http://purl.org/dc/elements/1.1/"
   xmlns:cc="http://creativecommons.org/ns#"
   xmlns:rdf="http://www.w3.org/1999/02/22-rdf-syntax-ns#"
   xmlns:svg="http://www.w3.org/2000/svg"
   xmlns="http://www.w3.org/2000/svg"
   xmlns:sodipodi="http://sodipodi.sourceforge.net/DTD/sodipodi-0.dtd"
   xmlns:inkscape="http://www.inkscape.org/namespaces/inkscape"
   width="116.488mm"
   height="28.160734mm"
   viewBox="0 0 116.488 28.160735"
   version="1.1"
   id="svg8"
   inkscape:version="1.0.2 (1.0.2+r75+1)"
   sodipodi:docname="liste_chainee.svg"
   inkscape:export-filename="/home/brice/Enseignement/APMAN/site_web/docs/images/liste_chainee.png"
   inkscape:export-xdpi="150"
   inkscape:export-ydpi="150">
  <defs
     id="defs2">
    <rect
       x="43.896866"
       y="21.684374"
       width="54.382793"
       height="26.264668"
       id="rect4254" />
    <marker
       style="overflow:visible"
       id="marker2066"
       refX="0"
       refY="0"
       orient="auto"
       inkscape:stockid="Arrow2Mend"
       inkscape:isstock="true">
      <path
         transform="scale(-0.6)"
         d="M 8.7185878,4.0337352 -2.2072895,0.01601326 8.7185884,-4.0017078 c -1.7454984,2.3720609 -1.7354408,5.6174519 -6e-7,8.035443 z"
         style="fill:#000000;fill-opacity:1;fill-rule:evenodd;stroke:#000000;stroke-width:0.625;stroke-linejoin:round;stroke-opacity:1"
         id="path2064" />
    </marker>
    <rect
       x="19.876648"
       y="18.711683"
       width="42.508129"
       height="26.021776"
       id="rect1969" />
    <marker
       style="overflow:visible"
       id="Arrow2Lend"
       refX="0"
       refY="0"
       orient="auto"
       inkscape:stockid="Arrow2Lend"
       inkscape:isstock="true">
      <path
         transform="matrix(-1.1,0,0,-1.1,-1.1,0)"
         d="M 8.7185878,4.0337352 -2.2072895,0.01601326 8.7185884,-4.0017078 c -1.7454984,2.3720609 -1.7354408,5.6174519 -6e-7,8.035443 z"
         style="fill:#000000;fill-opacity:1;fill-rule:evenodd;stroke:#000000;stroke-width:0.625;stroke-linejoin:round;stroke-opacity:1"
         id="path1119" />
    </marker>
    <rect
       x="4.5911813"
       y="17.514023"
       width="42.868103"
       height="22.63706"
       id="rect837" />
    <rect
       x="4.5911813"
       y="17.514023"
       width="42.868103"
       height="22.63706"
       id="rect837-3" />
    <rect
       x="4.5911813"
       y="17.514023"
       width="42.868103"
       height="22.63706"
       id="rect854" />
    <rect
       x="4.5911813"
       y="17.514023"
       width="42.868103"
       height="22.63706"
       id="rect837-7" />
    <rect
       x="4.5911813"
       y="17.514023"
       width="42.868103"
       height="22.63706"
       id="rect882" />
    <rect
       x="4.5911813"
       y="17.514023"
       width="42.868103"
       height="22.63706"
       id="rect837-35" />
    <rect
       x="4.5911813"
       y="17.514023"
       width="42.868103"
       height="22.63706"
       id="rect947" />
    <rect
       x="4.5911813"
       y="17.514023"
       width="42.868103"
       height="22.63706"
       id="rect837-7-6" />
    <rect
       x="4.5911813"
       y="17.514023"
       width="42.868103"
       height="22.63706"
       id="rect950" />
    <rect
       x="4.5911813"
       y="17.514023"
       width="42.868103"
       height="22.63706"
       id="rect837-0" />
    <rect
       x="4.5911813"
       y="17.514023"
       width="42.868103"
       height="22.63706"
       id="rect947-9" />
    <rect
       x="4.5911813"
       y="17.514023"
       width="42.868103"
       height="22.63706"
       id="rect837-7-3" />
    <rect
       x="4.5911813"
       y="17.514023"
       width="42.868103"
       height="22.63706"
       id="rect950-6" />
    <rect
       x="4.5911813"
       y="17.514023"
       width="42.868103"
       height="22.63706"
       id="rect837-8" />
    <rect
       x="4.5911813"
       y="17.514023"
       width="42.868103"
       height="22.63706"
       id="rect947-7" />
    <rect
       x="4.5911813"
       y="17.514023"
       width="42.868103"
       height="22.63706"
       id="rect837-7-9" />
    <rect
       x="4.5911813"
       y="17.514023"
       width="42.868103"
       height="22.63706"
       id="rect950-2" />
    <marker
       style="overflow:visible"
       id="Arrow2Mend-9"
       refX="0"
       refY="0"
       orient="auto"
       inkscape:stockid="Arrow2Mend"
       inkscape:isstock="true">
      <path
         transform="scale(-0.6)"
         d="M 8.7185878,4.0337352 -2.2072895,0.01601326 8.7185884,-4.0017078 c -1.7454984,2.3720609 -1.7354408,5.6174519 -6e-7,8.035443 z"
         style="fill:#000000;fill-opacity:1;fill-rule:evenodd;stroke:#000000;stroke-width:0.625;stroke-linejoin:round;stroke-opacity:1"
         id="path1125-4" />
    </marker>
    <rect
       x="4.5911813"
       y="17.514023"
       width="42.868103"
       height="22.63706"
       id="rect837-78" />
    <rect
       x="4.5911813"
       y="17.514023"
       width="42.868103"
       height="22.63706"
       id="rect1534" />
    <rect
       x="4.5911813"
       y="17.514023"
       width="42.868103"
       height="22.63706"
       id="rect837-7-4" />
    <rect
       x="4.5911813"
       y="17.514023"
       width="42.868103"
       height="22.63706"
       id="rect1537" />
    <marker
       style="overflow:visible"
       id="Arrow2Mend-3"
       refX="0"
       refY="0"
       orient="auto"
       inkscape:stockid="Arrow2Mend"
       inkscape:isstock="true">
      <path
         transform="scale(-0.6)"
         d="M 8.7185878,4.0337352 -2.2072895,0.01601326 8.7185884,-4.0017078 c -1.7454984,2.3720609 -1.7354408,5.6174519 -6e-7,8.035443 z"
         style="fill:#000000;fill-opacity:1;fill-rule:evenodd;stroke:#000000;stroke-width:0.625;stroke-linejoin:round;stroke-opacity:1"
         id="path1125-2" />
    </marker>
    <rect
       x="4.5911813"
       y="17.514023"
       width="42.868103"
       height="22.63706"
       id="rect837-06" />
    <rect
       x="4.5911813"
       y="17.514023"
       width="42.868103"
       height="22.63706"
       id="rect1534-1" />
    <rect
       x="4.5911813"
       y="17.514023"
       width="42.868103"
       height="22.63706"
       id="rect837-7-5" />
    <rect
       x="4.5911813"
       y="17.514023"
       width="42.868103"
       height="22.63706"
       id="rect1537-5" />
    <marker
       style="overflow:visible"
       id="Arrow2Mend-7"
       refX="0"
       refY="0"
       orient="auto"
       inkscape:stockid="Arrow2Mend"
       inkscape:isstock="true">
      <path
         transform="scale(-0.6)"
         d="M 8.7185878,4.0337352 -2.2072895,0.01601326 8.7185884,-4.0017078 c -1.7454984,2.3720609 -1.7354408,5.6174519 -6e-7,8.035443 z"
         style="fill:#000000;fill-opacity:1;fill-rule:evenodd;stroke:#000000;stroke-width:0.625;stroke-linejoin:round;stroke-opacity:1"
         id="path1125-45" />
    </marker>
    <rect
       x="4.5911813"
       y="17.514023"
       width="42.868103"
       height="22.63706"
       id="rect837-2" />
    <rect
       x="4.5911813"
       y="17.514023"
       width="42.868103"
       height="22.63706"
       id="rect1534-5" />
    <rect
       x="4.5911813"
       y="17.514023"
       width="42.868103"
       height="22.63706"
       id="rect837-7-47" />
    <rect
       x="4.5911813"
       y="17.514023"
       width="42.868103"
       height="22.63706"
       id="rect1537-4" />
    <marker
       style="overflow:visible"
       id="Arrow2Mend-4"
       refX="0"
       refY="0"
       orient="auto"
       inkscape:stockid="Arrow2Mend"
       inkscape:isstock="true">
      <path
         transform="scale(-0.6)"
         d="M 8.7185878,4.0337352 -2.2072895,0.01601326 8.7185884,-4.0017078 c -1.7454984,2.3720609 -1.7354408,5.6174519 -6e-7,8.035443 z"
         style="fill:#000000;fill-opacity:1;fill-rule:evenodd;stroke:#000000;stroke-width:0.625;stroke-linejoin:round;stroke-opacity:1"
         id="path1125-9" />
    </marker>
    <rect
       x="4.5911813"
       y="17.514023"
       width="42.868103"
       height="22.63706"
       id="rect837-4" />
    <rect
       x="4.5911813"
       y="17.514023"
       width="42.868103"
       height="22.63706"
       id="rect2661" />
    <rect
       x="4.5911813"
       y="17.514023"
       width="42.868103"
       height="22.63706"
       id="rect837-7-8" />
    <rect
       x="4.5911813"
       y="17.514023"
       width="42.868103"
       height="22.63706"
       id="rect2664" />
    <rect
       x="4.5911813"
       y="17.514023"
       width="42.868103"
       height="22.63706"
       id="rect837-4-6" />
    <rect
       x="4.5911813"
       y="17.514023"
       width="42.868103"
       height="22.63706"
       id="rect2835" />
    <rect
       x="4.5911813"
       y="17.514023"
       width="42.868103"
       height="22.63706"
       id="rect837-7-8-1" />
    <rect
       x="4.5911813"
       y="17.514023"
       width="42.868103"
       height="22.63706"
       id="rect2838" />
    <rect
       x="4.5911813"
       y="17.514023"
       width="42.868103"
       height="22.63706"
       id="rect837-4-6-1" />
    <rect
       x="4.5911813"
       y="17.514023"
       width="42.868103"
       height="22.63706"
       id="rect3019" />
    <rect
       x="4.5911813"
       y="17.514023"
       width="42.868103"
       height="22.63706"
       id="rect837-7-8-1-5" />
    <rect
       x="4.5911813"
       y="17.514023"
       width="42.868103"
       height="22.63706"
       id="rect3022" />
    <marker
       style="overflow:visible"
       id="marker2066-6"
       refX="0"
       refY="0"
       orient="auto"
       inkscape:stockid="Arrow2Mend"
       inkscape:isstock="true">
      <path
         transform="scale(-0.6)"
         d="M 8.7185878,4.0337352 -2.2072895,0.01601326 8.7185884,-4.0017078 c -1.7454984,2.3720609 -1.7354408,5.6174519 -6e-7,8.035443 z"
         style="fill:#000000;fill-opacity:1;fill-rule:evenodd;stroke:#000000;stroke-width:0.625;stroke-linejoin:round;stroke-opacity:1"
         id="path2064-3" />
    </marker>
    <rect
       x="4.5911813"
       y="17.514023"
       width="42.868103"
       height="22.63706"
       id="rect837-48" />
    <rect
       x="4.5911813"
       y="17.514023"
       width="42.868103"
       height="22.63706"
       id="rect3669" />
    <rect
       x="4.5911813"
       y="17.514023"
       width="42.868103"
       height="22.63706"
       id="rect837-7-1" />
    <rect
       x="4.5911813"
       y="17.514023"
       width="42.868103"
       height="22.63706"
       id="rect3672" />
    <marker
       style="overflow:visible"
       id="marker2066-6-2"
       refX="0"
       refY="0"
       orient="auto"
       inkscape:stockid="Arrow2Mend"
       inkscape:isstock="true">
      <path
         transform="scale(-0.6)"
         d="M 8.7185878,4.0337352 -2.2072895,0.01601326 8.7185884,-4.0017078 c -1.7454984,2.3720609 -1.7354408,5.6174519 -6e-7,8.035443 z"
         style="fill:#000000;fill-opacity:1;fill-rule:evenodd;stroke:#000000;stroke-width:0.625;stroke-linejoin:round;stroke-opacity:1"
         id="path2064-3-9" />
    </marker>
    <rect
       x="4.5911813"
       y="17.514023"
       width="42.868103"
       height="22.63706"
       id="rect837-48-3" />
    <rect
       x="4.5911813"
       y="17.514023"
       width="42.868103"
       height="22.63706"
       id="rect3847" />
    <rect
       x="4.5911813"
       y="17.514023"
       width="42.868103"
       height="22.63706"
       id="rect837-7-1-8" />
    <rect
       x="4.5911813"
       y="17.514023"
       width="42.868103"
       height="22.63706"
       id="rect3850" />
    <marker
       style="overflow:visible"
       id="marker2066-6-2-5"
       refX="0"
       refY="0"
       orient="auto"
       inkscape:stockid="Arrow2Mend"
       inkscape:isstock="true">
      <path
         transform="scale(-0.6)"
         d="M 8.7185878,4.0337352 -2.2072895,0.01601326 8.7185884,-4.0017078 c -1.7454984,2.3720609 -1.7354408,5.6174519 -6e-7,8.035443 z"
         style="fill:#000000;fill-opacity:1;fill-rule:evenodd;stroke:#000000;stroke-width:0.625;stroke-linejoin:round;stroke-opacity:1"
         id="path2064-3-9-6" />
    </marker>
    <rect
       x="4.5911813"
       y="17.514023"
       width="42.868103"
       height="22.63706"
       id="rect837-48-3-3" />
    <rect
       x="4.5911813"
       y="17.514023"
       width="42.868103"
       height="22.63706"
       id="rect4035" />
    <rect
       x="4.5911813"
       y="17.514023"
       width="42.868103"
       height="22.63706"
       id="rect837-7-1-8-0" />
    <rect
       x="4.5911813"
       y="17.514023"
       width="42.868103"
       height="22.63706"
       id="rect4038" />
    <marker
       style="overflow:visible"
       id="marker2066-6-2-5-4"
       refX="0"
       refY="0"
       orient="auto"
       inkscape:stockid="Arrow2Mend"
       inkscape:isstock="true">
      <path
         transform="scale(-0.6)"
         d="M 8.7185878,4.0337352 -2.2072895,0.01601326 8.7185884,-4.0017078 c -1.7454984,2.3720609 -1.7354408,5.6174519 -6e-7,8.035443 z"
         style="fill:#000000;fill-opacity:1;fill-rule:evenodd;stroke:#000000;stroke-width:0.625;stroke-linejoin:round;stroke-opacity:1"
         id="path2064-3-9-6-4" />
    </marker>
  </defs>
  <sodipodi:namedview
     id="base"
     pagecolor="#ffffff"
     bordercolor="#666666"
     borderopacity="1.0"
     inkscape:pageopacity="0.0"
     inkscape:pageshadow="2"
     inkscape:zoom="2.6681621"
     inkscape:cx="251.72173"
     inkscape:cy="83.748005"
     inkscape:document-units="mm"
     inkscape:current-layer="layer1"
     inkscape:document-rotation="0"
     showgrid="false"
     inkscape:snap-bbox="true"
     inkscape:bbox-paths="true"
     inkscape:bbox-nodes="true"
     inkscape:snap-bbox-edge-midpoints="true"
     inkscape:snap-bbox-midpoints="true"
     inkscape:object-paths="true"
     inkscape:snap-intersection-paths="true"
     inkscape:snap-smooth-nodes="true"
     inkscape:snap-midpoints="true"
     fit-margin-top="0"
     fit-margin-left="0"
     fit-margin-right="0"
     fit-margin-bottom="0"
     inkscape:window-width="1920"
     inkscape:window-height="1030"
     inkscape:window-x="0"
     inkscape:window-y="26"
     inkscape:window-maximized="1" />
  <metadata
     id="metadata5">
    <rdf:RDF>
      <cc:Work
         rdf:about="">
        <dc:format>image/svg+xml</dc:format>
        <dc:type
           rdf:resource="http://purl.org/dc/dcmitype/StillImage" />
        <dc:title></dc:title>
      </cc:Work>
    </rdf:RDF>
  </metadata>
  <g
     inkscape:label="Calque 1"
     inkscape:groupmode="layer"
     id="layer1"
     transform="translate(-0.08506253,-3.1108637)">
    <path
       style="font-variation-settings:normal;opacity:1;vector-effect:none;fill:none;fill-opacity:1;stroke:#000000;stroke-width:0.264583px;stroke-linecap:butt;stroke-linejoin:miter;stroke-miterlimit:4;stroke-dasharray:none;stroke-dashoffset:0;stroke-opacity:1;marker-end:url(#marker2066);stop-color:#000000;stop-opacity:1"
       d="m 9.5876052,26.271599 v -8.76073"
       id="path1985"
       sodipodi:nodetypes="cc" />
    <rect
       style="font-variation-settings:normal;opacity:1;vector-effect:none;fill:#cccccc;fill-opacity:1;stroke:#0000ff;stroke-width:1;stroke-linecap:butt;stroke-linejoin:miter;stroke-miterlimit:4;stroke-dasharray:none;stroke-dashoffset:0;stroke-opacity:1;stop-color:#000000;stop-opacity:1"
       id="rect833-66"
       width="4"
       height="10"
       x="26.771599"
       y="-14.585063"
       transform="rotate(90)" />
    <g
       id="g3646">
      <g
         id="g2636">
        <rect
           style="fill:none;stroke:#0000ff;stroke-width:0.999999;stroke-miterlimit:4;stroke-dasharray:none"
           id="rect833-66-4"
           width="13"
           height="18.000002"
           x="3.6108632"
           y="-18.585064"
           transform="rotate(90)" />
        <g
           id="g2596">
          <text
             xml:space="preserve"
             id="text835"
             style="font-style:normal;font-variant:normal;font-weight:normal;font-stretch:normal;font-size:3.52778px;line-height:1.25;font-family:sans-serif;font-variant-ligatures:normal;font-variant-position:normal;font-variant-caps:normal;font-variant-numeric:normal;font-variant-alternates:normal;font-variant-east-asian:normal;font-feature-settings:normal;font-variation-settings:normal;text-indent:0;text-align:start;text-decoration:none;text-decoration-line:none;text-decoration-style:solid;text-decoration-color:#000000;letter-spacing:0px;word-spacing:0px;text-transform:none;writing-mode:lr-tb;direction:ltr;text-orientation:mixed;dominant-baseline:auto;baseline-shift:baseline;white-space:pre;shape-inside:url(#rect837);shape-padding:0;shape-margin:0;inline-size:0;vector-effect:none;fill:#000000;fill-opacity:1;stroke:none;stroke-width:1;stroke-linecap:butt;stroke-linejoin:miter;stroke-miterlimit:4;stroke-dasharray:none;stroke-dashoffset:0;stroke-opacity:1;stop-color:#000000"
             transform="translate(-0.00873463,-9.2089011)"><tspan
               x="4.5917969"
               y="20.63493"><tspan
                 style="baseline-shift:baseline;shape-inside:url(#rect837);vector-effect:none;stop-color:#000000">val</tspan></tspan></text>
          <rect
             style="fill:none;stroke:#ff0000;stroke-width:1;stroke-miterlimit:4;stroke-dasharray:none"
             id="rect843"
             width="10"
             height="10"
             x="2.0850644"
             y="5.1108632" />
          <rect
             style="fill:#cccccc;stroke:#0000ff;stroke-width:0.999999;stroke-miterlimit:4;stroke-dasharray:none"
             id="rect833"
             width="4"
             height="10"
             x="13.085064"
             y="5.1108632" />
          <text
             xml:space="preserve"
             id="text835-5"
             style="font-style:normal;font-variant:normal;font-weight:normal;font-stretch:normal;font-size:3.52778px;line-height:1.25;font-family:sans-serif;font-variant-ligatures:normal;font-variant-position:normal;font-variant-caps:normal;font-variant-numeric:normal;font-variant-alternates:normal;font-variant-east-asian:normal;font-feature-settings:normal;font-variation-settings:normal;text-indent:0;text-align:start;text-decoration:none;text-decoration-line:none;text-decoration-style:solid;text-decoration-color:#000000;letter-spacing:0px;word-spacing:0px;text-transform:none;writing-mode:lr-tb;direction:ltr;text-orientation:mixed;dominant-baseline:auto;baseline-shift:baseline;white-space:pre;shape-inside:url(#rect837-7);shape-padding:0;shape-margin:0;inline-size:0;vector-effect:none;fill:#000000;fill-opacity:1;stroke:none;stroke-width:1;stroke-linecap:butt;stroke-linejoin:miter;stroke-miterlimit:4;stroke-dasharray:none;stroke-dashoffset:0;stroke-opacity:1;stop-color:#000000;"
             transform="rotate(-90,7.1959629,11.532294)"><tspan
               x="4.5917969"
               y="20.63493"><tspan>next</tspan></tspan></text>
        </g>
      </g>
      <path
         style="font-variation-settings:normal;vector-effect:none;fill:none;fill-opacity:1;stroke:#000000;stroke-width:0.264583px;stroke-linecap:butt;stroke-linejoin:miter;stroke-miterlimit:4;stroke-dasharray:none;stroke-dashoffset:0;stroke-opacity:1;marker-end:url(#marker2066-6);stop-color:#000000"
         d="m 17.585063,10.113405 h 8.760729"
         id="path1985-9"
         sodipodi:nodetypes="cc" />
    </g>
    <g
       id="g3646-3"
       transform="translate(26.660736)">
      <g
         id="g2636-9">
        <rect
           style="fill:none;stroke:#0000ff;stroke-width:0.999999;stroke-miterlimit:4;stroke-dasharray:none"
           id="rect833-66-4-0"
           width="13"
           height="18.000002"
           x="3.6108632"
           y="-18.585064"
           transform="rotate(90)" />
        <g
           id="g2596-8">
          <text
             xml:space="preserve"
             id="text835-8"
             style="font-style:normal;font-variant:normal;font-weight:normal;font-stretch:normal;font-size:3.52778px;line-height:1.25;font-family:sans-serif;font-variant-ligatures:normal;font-variant-position:normal;font-variant-caps:normal;font-variant-numeric:normal;font-variant-alternates:normal;font-variant-east-asian:normal;font-feature-settings:normal;font-variation-settings:normal;text-indent:0;text-align:start;text-decoration:none;text-decoration-line:none;text-decoration-style:solid;text-decoration-color:#000000;letter-spacing:0px;word-spacing:0px;text-transform:none;writing-mode:lr-tb;direction:ltr;text-orientation:mixed;dominant-baseline:auto;baseline-shift:baseline;white-space:pre;shape-inside:url(#rect837-48);shape-padding:0;shape-margin:0;inline-size:0;vector-effect:none;fill:#000000;fill-opacity:1;stroke:none;stroke-width:1;stroke-linecap:butt;stroke-linejoin:miter;stroke-miterlimit:4;stroke-dasharray:none;stroke-dashoffset:0;stroke-opacity:1;stop-color:#000000;"
             transform="translate(-0.00873463,-9.2089011)"><tspan
               x="4.5917969"
               y="20.63493"><tspan
                 style="baseline-shift:baseline;shape-inside:url(#rect837-48);vector-effect:none;stop-color:#000000">val</tspan></tspan></text>
          <rect
             style="fill:none;stroke:#ff0000;stroke-width:1;stroke-miterlimit:4;stroke-dasharray:none"
             id="rect843-5"
             width="10"
             height="10"
             x="2.0850644"
             y="5.1108632" />
          <rect
             style="fill:#cccccc;stroke:#0000ff;stroke-width:0.999999;stroke-miterlimit:4;stroke-dasharray:none"
             id="rect833-0"
             width="4"
             height="10"
             x="13.085064"
             y="5.1108632" />
          <text
             xml:space="preserve"
             id="text835-5-9"
             style="font-style:normal;font-variant:normal;font-weight:normal;font-stretch:normal;font-size:3.52778px;line-height:1.25;font-family:sans-serif;font-variant-ligatures:normal;font-variant-position:normal;font-variant-caps:normal;font-variant-numeric:normal;font-variant-alternates:normal;font-variant-east-asian:normal;font-feature-settings:normal;font-variation-settings:normal;text-indent:0;text-align:start;text-decoration:none;text-decoration-line:none;text-decoration-style:solid;text-decoration-color:#000000;letter-spacing:0px;word-spacing:0px;text-transform:none;writing-mode:lr-tb;direction:ltr;text-orientation:mixed;dominant-baseline:auto;baseline-shift:baseline;white-space:pre;shape-inside:url(#rect837-7-1);shape-padding:0;shape-margin:0;inline-size:0;vector-effect:none;fill:#000000;fill-opacity:1;stroke:none;stroke-width:1;stroke-linecap:butt;stroke-linejoin:miter;stroke-miterlimit:4;stroke-dasharray:none;stroke-dashoffset:0;stroke-opacity:1;stop-color:#000000;"
             transform="rotate(-90,7.1959629,11.532294)"><tspan
               x="4.5917969"
               y="20.63493"><tspan>next</tspan></tspan></text>
        </g>
      </g>
      <path
         style="font-variation-settings:normal;vector-effect:none;fill:none;fill-opacity:1;stroke:#000000;stroke-width:0.264583px;stroke-linecap:butt;stroke-linejoin:miter;stroke-miterlimit:4;stroke-dasharray:none;stroke-dashoffset:0;stroke-opacity:1;marker-end:url(#marker2066-6-2);stop-color:#000000"
         d="m 17.585063,10.113405 h 8.760729"
         id="path1985-9-6"
         sodipodi:nodetypes="cc" />
    </g>
    <g
       id="g3646-3-1"
       transform="translate(53.321472)">
      <g
         id="g2636-9-1">
        <rect
           style="fill:none;stroke:#0000ff;stroke-width:0.999999;stroke-miterlimit:4;stroke-dasharray:none"
           id="rect833-66-4-0-5"
           width="13"
           height="18.000002"
           x="3.6108632"
           y="-18.585064"
           transform="rotate(90)" />
        <g
           id="g2596-8-9">
          <text
             xml:space="preserve"
             id="text835-8-8"
             style="font-style:normal;font-variant:normal;font-weight:normal;font-stretch:normal;font-size:3.52778px;line-height:1.25;font-family:sans-serif;font-variant-ligatures:normal;font-variant-position:normal;font-variant-caps:normal;font-variant-numeric:normal;font-variant-alternates:normal;font-variant-east-asian:normal;font-feature-settings:normal;font-variation-settings:normal;text-indent:0;text-align:start;text-decoration:none;text-decoration-line:none;text-decoration-style:solid;text-decoration-color:#000000;letter-spacing:0px;word-spacing:0px;text-transform:none;writing-mode:lr-tb;direction:ltr;text-orientation:mixed;dominant-baseline:auto;baseline-shift:baseline;white-space:pre;shape-inside:url(#rect837-48-3);shape-padding:0;shape-margin:0;inline-size:0;vector-effect:none;fill:#000000;fill-opacity:1;stroke:none;stroke-width:1;stroke-linecap:butt;stroke-linejoin:miter;stroke-miterlimit:4;stroke-dasharray:none;stroke-dashoffset:0;stroke-opacity:1;stop-color:#000000;"
             transform="translate(-0.00873463,-9.2089011)"><tspan
               x="4.5917969"
               y="20.63493"><tspan
                 style="baseline-shift:baseline;shape-inside:url(#rect837-48-3);vector-effect:none;stop-color:#000000">val</tspan></tspan></text>
          <rect
             style="fill:none;stroke:#ff0000;stroke-width:1;stroke-miterlimit:4;stroke-dasharray:none"
             id="rect843-5-4"
             width="10"
             height="10"
             x="2.0850644"
             y="5.1108632" />
          <rect
             style="fill:#cccccc;stroke:#0000ff;stroke-width:0.999999;stroke-miterlimit:4;stroke-dasharray:none"
             id="rect833-0-8"
             width="4"
             height="10"
             x="13.085064"
             y="5.1108632" />
          <text
             xml:space="preserve"
             id="text835-5-9-1"
             style="font-style:normal;font-variant:normal;font-weight:normal;font-stretch:normal;font-size:3.52778px;line-height:1.25;font-family:sans-serif;font-variant-ligatures:normal;font-variant-position:normal;font-variant-caps:normal;font-variant-numeric:normal;font-variant-alternates:normal;font-variant-east-asian:normal;font-feature-settings:normal;font-variation-settings:normal;text-indent:0;text-align:start;text-decoration:none;text-decoration-line:none;text-decoration-style:solid;text-decoration-color:#000000;letter-spacing:0px;word-spacing:0px;text-transform:none;writing-mode:lr-tb;direction:ltr;text-orientation:mixed;dominant-baseline:auto;baseline-shift:baseline;white-space:pre;shape-inside:url(#rect837-7-1-8);shape-padding:0;shape-margin:0;inline-size:0;vector-effect:none;fill:#000000;fill-opacity:1;stroke:none;stroke-width:1;stroke-linecap:butt;stroke-linejoin:miter;stroke-miterlimit:4;stroke-dasharray:none;stroke-dashoffset:0;stroke-opacity:1;stop-color:#000000;"
             transform="rotate(-90,7.1959629,11.532294)"><tspan
               x="4.5917969"
               y="20.63493"><tspan>next</tspan></tspan></text>
        </g>
      </g>
      <path
         style="font-variation-settings:normal;vector-effect:none;fill:none;fill-opacity:1;stroke:#000000;stroke-width:0.264583px;stroke-linecap:butt;stroke-linejoin:miter;stroke-miterlimit:4;stroke-dasharray:none;stroke-dashoffset:0;stroke-opacity:1;marker-end:url(#marker2066-6-2-5);stop-color:#000000"
         d="m 17.585063,10.113405 h 8.760729"
         id="path1985-9-6-0"
         sodipodi:nodetypes="cc" />
    </g>
    <g
       id="g3646-3-1-4"
       transform="translate(79.982208)">
      <g
         id="g2636-9-1-4">
        <rect
           style="fill:none;stroke:#0000ff;stroke-width:0.999999;stroke-miterlimit:4;stroke-dasharray:none"
           id="rect833-66-4-0-5-7"
           width="13"
           height="18.000002"
           x="3.6108632"
           y="-18.585064"
           transform="rotate(90)" />
        <g
           id="g2596-8-9-6">
          <text
             xml:space="preserve"
             id="text835-8-8-3"
             style="font-style:normal;font-variant:normal;font-weight:normal;font-stretch:normal;font-size:3.52778px;line-height:1.25;font-family:sans-serif;font-variant-ligatures:normal;font-variant-position:normal;font-variant-caps:normal;font-variant-numeric:normal;font-variant-alternates:normal;font-variant-east-asian:normal;font-feature-settings:normal;font-variation-settings:normal;text-indent:0;text-align:start;text-decoration:none;text-decoration-line:none;text-decoration-style:solid;text-decoration-color:#000000;letter-spacing:0px;word-spacing:0px;text-transform:none;writing-mode:lr-tb;direction:ltr;text-orientation:mixed;dominant-baseline:auto;baseline-shift:baseline;white-space:pre;shape-inside:url(#rect837-48-3-3);shape-padding:0;shape-margin:0;inline-size:0;vector-effect:none;fill:#000000;fill-opacity:1;stroke:none;stroke-width:1;stroke-linecap:butt;stroke-linejoin:miter;stroke-miterlimit:4;stroke-dasharray:none;stroke-dashoffset:0;stroke-opacity:1;stop-color:#000000;"
             transform="translate(-0.00873463,-9.2089011)"><tspan
               x="4.5917969"
               y="20.63493"><tspan
                 style="baseline-shift:baseline;shape-inside:url(#rect837-48-3-3);vector-effect:none;stop-color:#000000">val</tspan></tspan></text>
          <rect
             style="fill:none;stroke:#ff0000;stroke-width:1;stroke-miterlimit:4;stroke-dasharray:none"
             id="rect843-5-4-1"
             width="10"
             height="10"
             x="2.0850644"
             y="5.1108632" />
          <rect
             style="fill:#cccccc;stroke:#0000ff;stroke-width:0.999999;stroke-miterlimit:4;stroke-dasharray:none"
             id="rect833-0-8-7"
             width="4"
             height="10"
             x="13.085064"
             y="5.1108632" />
          <text
             xml:space="preserve"
             id="text835-5-9-1-5"
             style="font-style:normal;font-variant:normal;font-weight:normal;font-stretch:normal;font-size:3.52778px;line-height:1.25;font-family:sans-serif;font-variant-ligatures:normal;font-variant-position:normal;font-variant-caps:normal;font-variant-numeric:normal;font-variant-alternates:normal;font-variant-east-asian:normal;font-feature-settings:normal;font-variation-settings:normal;text-indent:0;text-align:start;text-decoration:none;text-decoration-line:none;text-decoration-style:solid;text-decoration-color:#000000;letter-spacing:0px;word-spacing:0px;text-transform:none;writing-mode:lr-tb;direction:ltr;text-orientation:mixed;dominant-baseline:auto;baseline-shift:baseline;white-space:pre;shape-inside:url(#rect837-7-1-8-0);shape-padding:0;shape-margin:0;inline-size:0;vector-effect:none;fill:#000000;fill-opacity:1;stroke:none;stroke-width:1;stroke-linecap:butt;stroke-linejoin:miter;stroke-miterlimit:4;stroke-dasharray:none;stroke-dashoffset:0;stroke-opacity:1;stop-color:#000000;"
             transform="rotate(-90,7.1959629,11.532294)"><tspan
               x="4.5917969"
               y="20.63493"><tspan>next</tspan></tspan></text>
        </g>
      </g>
      <path
         style="font-variation-settings:normal;vector-effect:none;fill:none;fill-opacity:1;stroke:#000000;stroke-width:0.264583px;stroke-linecap:butt;stroke-linejoin:miter;stroke-miterlimit:4;stroke-dasharray:none;stroke-dashoffset:0;stroke-opacity:1;marker-end:url(#marker2066-6-2-5-4);stop-color:#000000"
         d="m 17.585063,10.113405 h 8.760729"
         id="path1985-9-6-0-9"
         sodipodi:nodetypes="cc" />
    </g>
    <text
       xml:space="preserve"
       id="text4252"
       style="font-style:normal;font-weight:normal;font-size:3.52778px;line-height:1.25;font-family:sans-serif;letter-spacing:0px;word-spacing:0px;white-space:pre;shape-inside:url(#rect4254);fill:#000000;fill-opacity:1;stroke:none;"
       transform="translate(63.543624,-13.433084)"><tspan
         x="43.896484"
         y="24.804852"><tspan
           style="shape-inside:url(#rect4254)">NULL</tspan></tspan></text>
  </g>
</svg>
