<?xml version="1.0" encoding="UTF-8" standalone="no"?>
<!-- Created with Inkscape (http://www.inkscape.org/) -->

<svg
   xmlns:dc="http://purl.org/dc/elements/1.1/"
   xmlns:cc="http://creativecommons.org/ns#"
   xmlns:rdf="http://www.w3.org/1999/02/22-rdf-syntax-ns#"
   xmlns:svg="http://www.w3.org/2000/svg"
   xmlns="http://www.w3.org/2000/svg"
   xmlns:sodipodi="http://sodipodi.sourceforge.net/DTD/sodipodi-0.dtd"
   xmlns:inkscape="http://www.inkscape.org/namespaces/inkscape"
   width="244.27002"
   height="200"
   id="svg2"
   version="1.1"
   inkscape:version="0.92.3 (2405546, 2018-03-11)"
   sodipodi:docname="key_reconciliation.svg">
  <defs
     id="defs4">
    <marker
       inkscape:stockid="Arrow2Mend"
       orient="auto"
       refY="0"
       refX="0"
       id="marker6543"
       style="overflow:visible"
       inkscape:isstock="true">
      <path
         id="path6541"
         style="fill:#000000;fill-opacity:1;fill-rule:evenodd;stroke:#000000;stroke-width:0.625;stroke-linejoin:round;stroke-opacity:1"
         d="M 8.7185878,4.0337352 -2.2072895,0.01601326 8.7185884,-4.0017078 c -1.7454984,2.3720609 -1.7354408,5.6174519 -6e-7,8.035443 z"
         transform="scale(-0.6)"
         inkscape:connector-curvature="0" />
    </marker>
    <marker
       inkscape:stockid="Arrow2Mend"
       orient="auto"
       refY="0"
       refX="0"
       id="marker5703"
       style="overflow:visible"
       inkscape:isstock="true">
      <path
         id="path5701"
         style="fill:#000000;fill-opacity:1;fill-rule:evenodd;stroke:#000000;stroke-width:0.625;stroke-linejoin:round;stroke-opacity:1"
         d="M 8.7185878,4.0337352 -2.2072895,0.01601326 8.7185884,-4.0017078 c -1.7454984,2.3720609 -1.7354408,5.6174519 -6e-7,8.035443 z"
         transform="scale(-0.6)"
         inkscape:connector-curvature="0" />
    </marker>
    <marker
       inkscape:isstock="true"
       style="overflow:visible"
       id="marker7135"
       refX="0"
       refY="0"
       orient="auto"
       inkscape:stockid="Arrow2Mend">
      <path
         inkscape:connector-curvature="0"
         transform="scale(-0.6)"
         d="M 8.7185878,4.0337352 -2.2072895,0.01601326 8.7185884,-4.0017078 c -1.7454984,2.3720609 -1.7354408,5.6174519 -6e-7,8.035443 z"
         style="fill:#000000;fill-opacity:1;fill-rule:evenodd;stroke:#000000;stroke-width:0.625;stroke-linejoin:round;stroke-opacity:1"
         id="path7133" />
    </marker>
    <marker
       inkscape:isstock="true"
       style="overflow:visible"
       id="marker6946"
       refX="0"
       refY="0"
       orient="auto"
       inkscape:stockid="Arrow2Mend">
      <path
         inkscape:connector-curvature="0"
         transform="scale(-0.6)"
         d="M 8.7185878,4.0337352 -2.2072895,0.01601326 8.7185884,-4.0017078 c -1.7454984,2.3720609 -1.7354408,5.6174519 -6e-7,8.035443 z"
         style="fill:#000000;fill-opacity:1;fill-rule:evenodd;stroke:#000000;stroke-width:0.625;stroke-linejoin:round;stroke-opacity:1"
         id="path6944" />
    </marker>
    <marker
       inkscape:isstock="true"
       style="overflow:visible"
       id="marker6781"
       refX="0"
       refY="0"
       orient="auto"
       inkscape:stockid="Arrow2Mend"
       inkscape:collect="always">
      <path
         inkscape:connector-curvature="0"
         transform="scale(-0.6)"
         d="M 8.7185878,4.0337352 -2.2072895,0.01601326 8.7185884,-4.0017078 c -1.7454984,2.3720609 -1.7354408,5.6174519 -6e-7,8.035443 z"
         style="fill:#000000;fill-opacity:1;fill-rule:evenodd;stroke:#000000;stroke-width:0.625;stroke-linejoin:round;stroke-opacity:1"
         id="path6779" />
    </marker>
    <marker
       inkscape:isstock="true"
       style="overflow:visible"
       id="marker6640"
       refX="0"
       refY="0"
       orient="auto"
       inkscape:stockid="Arrow2Mend">
      <path
         inkscape:connector-curvature="0"
         transform="scale(-0.6)"
         d="M 8.7185878,4.0337352 -2.2072895,0.01601326 8.7185884,-4.0017078 c -1.7454984,2.3720609 -1.7354408,5.6174519 -6e-7,8.035443 z"
         style="fill:#000000;fill-opacity:1;fill-rule:evenodd;stroke:#000000;stroke-width:0.625;stroke-linejoin:round;stroke-opacity:1"
         id="path6638" />
    </marker>
    <marker
       inkscape:stockid="Arrow2Mstart"
       orient="auto"
       refY="0"
       refX="0"
       id="Arrow2Mstart"
       style="overflow:visible">
      <path
         id="path3873"
         style="fill-rule:evenodd;stroke-width:0.625;stroke-linejoin:round"
         d="M 8.7185878,4.0337352 -2.2072895,0.01601326 8.7185884,-4.0017078 c -1.7454984,2.3720609 -1.7354408,5.6174519 -6e-7,8.035443 z"
         transform="scale(0.6)"
         inkscape:connector-curvature="0" />
    </marker>
    <marker
       inkscape:stockid="Arrow2Mend"
       orient="auto"
       refY="0"
       refX="0"
       id="Arrow2Mend"
       style="overflow:visible">
      <path
         id="path3876"
         style="fill-rule:evenodd;stroke-width:0.625;stroke-linejoin:round"
         d="M 8.7185878,4.0337352 -2.2072895,0.01601326 8.7185884,-4.0017078 c -1.7454984,2.3720609 -1.7354408,5.6174519 -6e-7,8.035443 z"
         transform="scale(-0.6)"
         inkscape:connector-curvature="0" />
    </marker>
    <inkscape:path-effect
       effect="spiro"
       id="path-effect3843"
       is_visible="true" />
    <marker
       inkscape:stockid="Arrow2Mend"
       orient="auto"
       refY="0"
       refX="0"
       id="Arrow2Mend-0"
       style="overflow:visible">
      <path
         inkscape:connector-curvature="0"
         id="path3876-9"
         style="fill-rule:evenodd;stroke-width:0.625;stroke-linejoin:round"
         d="M 8.7185878,4.0337352 -2.2072895,0.01601326 8.7185884,-4.0017078 c -1.7454984,2.3720609 -1.7354408,5.6174519 -6e-7,8.035443 z"
         transform="scale(-0.6)" />
    </marker>
    <inkscape:path-effect
       effect="spiro"
       id="path-effect3843-4"
       is_visible="true" />
    <marker
       inkscape:stockid="Arrow2Mend"
       orient="auto"
       refY="0"
       refX="0"
       id="Arrow2Mend-7"
       style="overflow:visible">
      <path
         inkscape:connector-curvature="0"
         id="path3876-6"
         style="fill-rule:evenodd;stroke-width:0.625;stroke-linejoin:round"
         d="M 8.7185878,4.0337352 -2.2072895,0.01601326 8.7185884,-4.0017078 c -1.7454984,2.3720609 -1.7354408,5.6174519 -6e-7,8.035443 z"
         transform="scale(-0.6)" />
    </marker>
    <inkscape:path-effect
       effect="spiro"
       id="path-effect3843-1"
       is_visible="true" />
    <marker
       inkscape:stockid="Arrow2Mend"
       orient="auto"
       refY="0"
       refX="0"
       id="Arrow2Mend-9"
       style="overflow:visible">
      <path
         inkscape:connector-curvature="0"
         id="path3876-2"
         style="fill-rule:evenodd;stroke-width:0.625;stroke-linejoin:round"
         d="M 8.7185878,4.0337352 -2.2072895,0.01601326 8.7185884,-4.0017078 c -1.7454984,2.3720609 -1.7354408,5.6174519 -6e-7,8.035443 z"
         transform="scale(-0.6)" />
    </marker>
    <inkscape:path-effect
       effect="spiro"
       id="path-effect3843-7"
       is_visible="true" />
    <marker
       inkscape:stockid="Arrow2Mend"
       orient="auto"
       refY="0"
       refX="0"
       id="Arrow2Mend-2"
       style="overflow:visible">
      <path
         inkscape:connector-curvature="0"
         id="path3876-3"
         style="fill-rule:evenodd;stroke-width:0.625;stroke-linejoin:round"
         d="M 8.7185878,4.0337352 -2.2072895,0.01601326 8.7185884,-4.0017078 c -1.7454984,2.3720609 -1.7354408,5.6174519 -6e-7,8.035443 z"
         transform="scale(-0.6)" />
    </marker>
    <inkscape:path-effect
       effect="spiro"
       id="path-effect3843-7-3"
       is_visible="true" />
    <marker
       inkscape:stockid="Arrow2Mend"
       orient="auto"
       refY="0"
       refX="0"
       id="marker6371"
       style="overflow:visible"
       inkscape:isstock="true"
       inkscape:collect="always">
      <path
         id="path6369"
         style="fill:#000000;fill-opacity:1;fill-rule:evenodd;stroke:#000000;stroke-width:0.625;stroke-linejoin:round;stroke-opacity:1"
         d="M 8.7185878,4.0337352 -2.2072895,0.01601326 8.7185884,-4.0017078 c -1.7454984,2.3720609 -1.7354408,5.6174519 -6e-7,8.035443 z"
         transform="scale(-0.6)"
         inkscape:connector-curvature="0" />
    </marker>
    <marker
       inkscape:stockid="Arrow2Mend"
       orient="auto"
       refY="0"
       refX="0"
       id="marker6371-4"
       style="overflow:visible"
       inkscape:isstock="true">
      <path
         id="path6369-6"
         style="fill:#000000;fill-opacity:1;fill-rule:evenodd;stroke:#000000;stroke-width:0.625;stroke-linejoin:round;stroke-opacity:1"
         d="M 8.7185878,4.0337352 -2.2072895,0.01601326 8.7185884,-4.0017078 c -1.7454984,2.3720609 -1.7354408,5.6174519 -6e-7,8.035443 z"
         transform="scale(-0.6)"
         inkscape:connector-curvature="0" />
    </marker>
    <inkscape:path-effect
       effect="spiro"
       id="path-effect3843-5"
       is_visible="true" />
    <marker
       inkscape:stockid="Arrow2Mend"
       orient="auto"
       refY="0"
       refX="0"
       id="marker6371-5"
       style="overflow:visible"
       inkscape:isstock="true">
      <path
         id="path6369-5"
         style="fill:#000000;fill-opacity:1;fill-rule:evenodd;stroke:#000000;stroke-width:0.625;stroke-linejoin:round;stroke-opacity:1"
         d="M 8.7185878,4.0337352 -2.2072895,0.01601326 8.7185884,-4.0017078 c -1.7454984,2.3720609 -1.7354408,5.6174519 -6e-7,8.035443 z"
         transform="scale(-0.6)"
         inkscape:connector-curvature="0" />
    </marker>
    <inkscape:path-effect
       effect="spiro"
       id="path-effect3843-9"
       is_visible="true" />
    <marker
       inkscape:stockid="Arrow2Mend"
       orient="auto"
       refY="0"
       refX="0"
       id="marker6371-9"
       style="overflow:visible"
       inkscape:isstock="true">
      <path
         id="path6369-3"
         style="fill:#000000;fill-opacity:1;fill-rule:evenodd;stroke:#000000;stroke-width:0.625;stroke-linejoin:round;stroke-opacity:1"
         d="M 8.7185878,4.0337352 -2.2072895,0.01601326 8.7185884,-4.0017078 c -1.7454984,2.3720609 -1.7354408,5.6174519 -6e-7,8.035443 z"
         transform="scale(-0.6)"
         inkscape:connector-curvature="0" />
    </marker>
    <inkscape:path-effect
       effect="spiro"
       id="path-effect3843-98"
       is_visible="true" />
    <marker
       inkscape:stockid="Arrow2Mend"
       orient="auto"
       refY="0"
       refX="0"
       id="marker6371-58"
       style="overflow:visible"
       inkscape:isstock="true">
      <path
         id="path6369-9"
         style="fill:#000000;fill-opacity:1;fill-rule:evenodd;stroke:#000000;stroke-width:0.625;stroke-linejoin:round;stroke-opacity:1"
         d="M 8.7185878,4.0337352 -2.2072895,0.01601326 8.7185884,-4.0017078 c -1.7454984,2.3720609 -1.7354408,5.6174519 -6e-7,8.035443 z"
         transform="scale(-0.6)"
         inkscape:connector-curvature="0" />
    </marker>
    <inkscape:path-effect
       effect="spiro"
       id="path-effect3843-48"
       is_visible="true" />
    <marker
       inkscape:isstock="true"
       style="overflow:visible"
       id="marker6946-6"
       refX="0"
       refY="0"
       orient="auto"
       inkscape:stockid="Arrow2Mend">
      <path
         inkscape:connector-curvature="0"
         transform="scale(-0.6)"
         d="M 8.7185878,4.0337352 -2.2072895,0.01601326 8.7185884,-4.0017078 c -1.7454984,2.3720609 -1.7354408,5.6174519 -6e-7,8.035443 z"
         style="fill:#000000;fill-opacity:1;fill-rule:evenodd;stroke:#000000;stroke-width:0.625;stroke-linejoin:round;stroke-opacity:1"
         id="path6944-3" />
    </marker>
    <inkscape:path-effect
       effect="spiro"
       id="path-effect3843-7-3-3"
       is_visible="true" />
    <marker
       inkscape:stockid="Arrow2Mstart"
       orient="auto"
       refY="0"
       refX="0"
       id="Arrow2Mstart-3"
       style="overflow:visible">
      <path
         id="path3873-5"
         style="fill-rule:evenodd;stroke-width:0.625;stroke-linejoin:round"
         d="M 8.7185878,4.0337352 -2.2072895,0.01601326 8.7185884,-4.0017078 c -1.7454984,2.3720609 -1.7354408,5.6174519 -6e-7,8.035443 z"
         transform="scale(0.6)"
         inkscape:connector-curvature="0" />
    </marker>
    <marker
       inkscape:isstock="true"
       style="overflow:visible"
       id="marker6781-1"
       refX="0"
       refY="0"
       orient="auto"
       inkscape:stockid="Arrow2Mend">
      <path
         inkscape:connector-curvature="0"
         transform="scale(-0.6)"
         d="M 8.7185878,4.0337352 -2.2072895,0.01601326 8.7185884,-4.0017078 c -1.7454984,2.3720609 -1.7354408,5.6174519 -6e-7,8.035443 z"
         style="fill:#000000;fill-opacity:1;fill-rule:evenodd;stroke:#000000;stroke-width:0.625;stroke-linejoin:round;stroke-opacity:1"
         id="path6779-4" />
    </marker>
    <inkscape:path-effect
       effect="spiro"
       id="path-effect3843-1-9"
       is_visible="true" />
    <marker
       inkscape:isstock="true"
       style="overflow:visible"
       id="marker6946-6-1"
       refX="0"
       refY="0"
       orient="auto"
       inkscape:stockid="Arrow2Mend">
      <path
         inkscape:connector-curvature="0"
         transform="scale(-0.6)"
         d="M 8.7185878,4.0337352 -2.2072895,0.01601326 8.7185884,-4.0017078 c -1.7454984,2.3720609 -1.7354408,5.6174519 -6e-7,8.035443 z"
         style="fill:#000000;fill-opacity:1;fill-rule:evenodd;stroke:#000000;stroke-width:0.625;stroke-linejoin:round;stroke-opacity:1"
         id="path6944-3-4" />
    </marker>
    <inkscape:path-effect
       effect="spiro"
       id="path-effect3843-7-3-3-5"
       is_visible="true" />
    <filter
       style="color-interpolation-filters:sRGB"
       inkscape:label="Drop Shadow"
       id="filter8613">
      <feFlood
         flood-opacity="1"
         flood-color="rgb(0,0,0)"
         result="flood"
         id="feFlood8603" />
      <feComposite
         in="flood"
         in2="SourceGraphic"
         operator="in"
         result="composite1"
         id="feComposite8605" />
      <feGaussianBlur
         in="composite1"
         stdDeviation="0.3"
         result="blur"
         id="feGaussianBlur8607" />
      <feOffset
         dx="0.3"
         dy="0.3"
         result="offset"
         id="feOffset8609" />
      <feComposite
         in="SourceGraphic"
         in2="offset"
         operator="over"
         result="composite2"
         id="feComposite8611" />
    </filter>
    <filter
       style="color-interpolation-filters:sRGB"
       inkscape:label="Drop Shadow"
       id="filter8625">
      <feFlood
         flood-opacity="1"
         flood-color="rgb(0,0,0)"
         result="flood"
         id="feFlood8615" />
      <feComposite
         in="flood"
         in2="SourceGraphic"
         operator="in"
         result="composite1"
         id="feComposite8617" />
      <feGaussianBlur
         in="composite1"
         stdDeviation="0.3"
         result="blur"
         id="feGaussianBlur8619" />
      <feOffset
         dx="0.3"
         dy="0.3"
         result="offset"
         id="feOffset8621" />
      <feComposite
         in="SourceGraphic"
         in2="offset"
         operator="over"
         result="composite2"
         id="feComposite8623" />
    </filter>
    <filter
       style="color-interpolation-filters:sRGB"
       inkscape:label="Drop Shadow"
       id="filter8778">
      <feFlood
         flood-opacity="1"
         flood-color="rgb(0,0,0)"
         result="flood"
         id="feFlood8768" />
      <feComposite
         in="flood"
         in2="SourceGraphic"
         operator="in"
         result="composite1"
         id="feComposite8770" />
      <feGaussianBlur
         in="composite1"
         stdDeviation="0.3"
         result="blur"
         id="feGaussianBlur8772" />
      <feOffset
         dx="0.3"
         dy="0.3"
         result="offset"
         id="feOffset8774" />
      <feComposite
         in="SourceGraphic"
         in2="offset"
         operator="over"
         result="composite2"
         id="feComposite8776" />
    </filter>
    <filter
       style="color-interpolation-filters:sRGB"
       inkscape:label="Drop Shadow"
       id="filter8802">
      <feFlood
         flood-opacity="1"
         flood-color="rgb(0,0,0)"
         result="flood"
         id="feFlood8792" />
      <feComposite
         in="flood"
         in2="SourceGraphic"
         operator="in"
         result="composite1"
         id="feComposite8794" />
      <feGaussianBlur
         in="composite1"
         stdDeviation="0.3"
         result="blur"
         id="feGaussianBlur8796" />
      <feOffset
         dx="0.3"
         dy="0.3"
         result="offset"
         id="feOffset8798" />
      <feComposite
         in="SourceGraphic"
         in2="offset"
         operator="over"
         result="composite2"
         id="feComposite8800" />
    </filter>
    <marker
       inkscape:isstock="true"
       style="overflow:visible"
       id="marker6946-6-1-6"
       refX="0"
       refY="0"
       orient="auto"
       inkscape:stockid="Arrow2Mend">
      <path
         inkscape:connector-curvature="0"
         transform="scale(-0.6)"
         d="M 8.7185878,4.0337352 -2.2072895,0.01601326 8.7185884,-4.0017078 c -1.7454984,2.3720609 -1.7354408,5.6174519 -6e-7,8.035443 z"
         style="fill:#000000;fill-opacity:1;fill-rule:evenodd;stroke:#000000;stroke-width:0.625;stroke-linejoin:round;stroke-opacity:1"
         id="path6944-3-4-6" />
    </marker>
    <inkscape:path-effect
       effect="spiro"
       id="path-effect3843-7-3-3-5-0"
       is_visible="true" />
    <marker
       inkscape:isstock="true"
       style="overflow:visible"
       id="marker6946-6-1-6-5"
       refX="0"
       refY="0"
       orient="auto"
       inkscape:stockid="Arrow2Mend">
      <path
         inkscape:connector-curvature="0"
         transform="scale(-0.6)"
         d="M 8.7185878,4.0337352 -2.2072895,0.01601326 8.7185884,-4.0017078 c -1.7454984,2.3720609 -1.7354408,5.6174519 -6e-7,8.035443 z"
         style="fill:#000000;fill-opacity:1;fill-rule:evenodd;stroke:#000000;stroke-width:0.625;stroke-linejoin:round;stroke-opacity:1"
         id="path6944-3-4-6-0" />
    </marker>
    <inkscape:path-effect
       effect="spiro"
       id="path-effect3843-7-3-3-5-0-7"
       is_visible="true" />
    <clipPath
       id="cp2">
      <rect
         style="clip-rule:nonzero"
         y="0"
         x="0"
         width="600"
         height="110"
         id="rect40" />
    </clipPath>
    <marker
       inkscape:stockid="Arrow2Mstart"
       orient="auto"
       refY="0"
       refX="0"
       id="Arrow2Mstart-33"
       style="overflow:visible">
      <path
         id="path3873-6"
         style="fill-rule:evenodd;stroke-width:0.625;stroke-linejoin:round"
         d="M 8.7185878,4.0337352 -2.2072895,0.01601326 8.7185884,-4.0017078 c -1.7454984,2.3720609 -1.7354408,5.6174519 -6e-7,8.035443 z"
         transform="scale(0.6)"
         inkscape:connector-curvature="0" />
    </marker>
    <marker
       inkscape:isstock="true"
       style="overflow:visible"
       id="marker6781-8"
       refX="0"
       refY="0"
       orient="auto"
       inkscape:stockid="Arrow2Mend">
      <path
         inkscape:connector-curvature="0"
         transform="scale(-0.6)"
         d="M 8.7185878,4.0337352 -2.2072895,0.01601326 8.7185884,-4.0017078 c -1.7454984,2.3720609 -1.7354408,5.6174519 -6e-7,8.035443 z"
         style="fill:#000000;fill-opacity:1;fill-rule:evenodd;stroke:#000000;stroke-width:0.625;stroke-linejoin:round;stroke-opacity:1"
         id="path6779-6" />
    </marker>
    <inkscape:path-effect
       effect="spiro"
       id="path-effect3843-1-4"
       is_visible="true" />
    <marker
       inkscape:stockid="Arrow2Mstart"
       orient="auto"
       refY="0"
       refX="0"
       id="Arrow2Mstart-8"
       style="overflow:visible">
      <path
         id="path3873-4"
         style="fill-rule:evenodd;stroke-width:0.625;stroke-linejoin:round"
         d="M 8.7185878,4.0337352 -2.2072895,0.01601326 8.7185884,-4.0017078 c -1.7454984,2.3720609 -1.7354408,5.6174519 -6e-7,8.035443 z"
         transform="scale(0.6)"
         inkscape:connector-curvature="0" />
    </marker>
    <marker
       inkscape:stockid="Arrow2Mend"
       orient="auto"
       refY="0"
       refX="0"
       id="marker5703-1"
       style="overflow:visible"
       inkscape:isstock="true">
      <path
         id="path5701-4"
         style="fill:#000000;fill-opacity:1;fill-rule:evenodd;stroke:#000000;stroke-width:0.625;stroke-linejoin:round;stroke-opacity:1"
         d="M 8.7185878,4.0337352 -2.2072895,0.01601326 8.7185884,-4.0017078 c -1.7454984,2.3720609 -1.7354408,5.6174519 -6e-7,8.035443 z"
         transform="scale(-0.6)"
         inkscape:connector-curvature="0" />
    </marker>
    <clipPath
       id="cp2-3">
      <rect
         style="clip-rule:nonzero"
         y="0"
         x="0"
         width="600"
         height="110"
         id="rect40-8" />
    </clipPath>
    <marker
       inkscape:stockid="Arrow2Mstart"
       orient="auto"
       refY="0"
       refX="0"
       id="Arrow2Mstart-0"
       style="overflow:visible">
      <path
         id="path3873-9"
         style="fill-rule:evenodd;stroke-width:0.625;stroke-linejoin:round"
         d="M 8.7185878,4.0337352 -2.2072895,0.01601326 8.7185884,-4.0017078 c -1.7454984,2.3720609 -1.7354408,5.6174519 -6e-7,8.035443 z"
         transform="scale(0.6)"
         inkscape:connector-curvature="0" />
    </marker>
    <inkscape:path-effect
       effect="spiro"
       id="path-effect3843-1-1"
       is_visible="true" />
  </defs>
  <sodipodi:namedview
     id="base"
     pagecolor="#ffffff"
     bordercolor="#666666"
     borderopacity="1.0"
     inkscape:pageopacity="0.0"
     inkscape:pageshadow="2"
     inkscape:zoom="1.979899"
     inkscape:cx="36.903181"
     inkscape:cy="70.641842"
     inkscape:document-units="px"
     inkscape:current-layer="layer1"
     showgrid="false"
     fit-margin-top="10"
     fit-margin-left="10"
     fit-margin-right="10"
     fit-margin-bottom="10"
     inkscape:window-width="1920"
     inkscape:window-height="1144"
     inkscape:window-x="0"
     inkscape:window-y="28"
     inkscape:window-maximized="1" />
  <metadata
     id="metadata7">
    <rdf:RDF>
      <cc:Work
         rdf:about="">
        <dc:format>image/svg+xml</dc:format>
        <dc:type
           rdf:resource="http://purl.org/dc/dcmitype/StillImage" />
        <dc:title></dc:title>
      </cc:Work>
    </rdf:RDF>
  </metadata>
  <g
     inkscape:label="Calque 1"
     inkscape:groupmode="layer"
     id="layer1"
     transform="translate(3.282894,-393.82428)">
    <path
       style="color:#000000;display:inline;overflow:visible;visibility:visible;fill:#cb4b16;fill-opacity:1;fill-rule:nonzero;stroke:#000000;stroke-width:1;stroke-miterlimit:4;stroke-dasharray:none;stroke-opacity:1;marker:none;filter:url(#filter8613);enable-background:accumulate"
       d="m 223.1771,394.37103 c -6.49279,0 -11.75625,5.2069 -11.75625,11.62994 0,5.10019 3.31786,9.43136 7.93547,11 -6.81149,3.37339 -11.85421,15.57032 -11.85421,30.09248 h 31.34998 c 0,-14.52216 -5.04272,-26.71909 -11.85421,-30.09248 4.61761,-1.56864 7.93546,-5.89981 7.93546,-11 0,-6.42304 -5.26345,-11.62994 -11.75624,-11.62994 z"
       id="path2985"
       inkscape:connector-curvature="0" />
    <path
       style="color:#000000;display:inline;overflow:visible;visibility:visible;fill:#0d5f74;fill-opacity:1;fill-rule:nonzero;stroke:#000000;stroke-width:1;stroke-miterlimit:4;stroke-dasharray:none;stroke-opacity:1;marker:none;filter:url(#filter8625);enable-background:accumulate"
       d="m 15.527094,394.37103 c -6.49279,0 -11.75625,5.2069 -11.75625,11.62994 0,5.10019 3.31786,9.43136 7.93547,11 -6.81149,3.37339 -11.85421,15.57032 -11.85421,30.09248 h 31.34998 c 0,-14.52216 -5.04272,-26.71909 -11.85421,-30.09248 4.61761,-1.56864 7.93546,-5.89981 7.93546,-11 0,-6.42304 -5.26345,-11.62994 -11.75624,-11.62994 z"
       id="path2985-1"
       inkscape:connector-curvature="0" />
    <g
       id="g4772"
       transform="translate(-2.1028369)">
      <path
         sodipodi:nodetypes="ccsssc"
         inkscape:connector-curvature="0"
         id="rect3808"
         d="m 73.324883,412.63 v 16.20448 h 97.004097 c 4.48054,0 8.11275,-3.62749 8.11275,-8.10224 0,-4.47474 -3.63221,-8.10224 -8.11275,-8.10224 z"
         style="color:#000000;display:inline;overflow:visible;visibility:visible;fill:#93a1a1;fill-opacity:1;fill-rule:nonzero;stroke:#000000;stroke-width:1;stroke-miterlimit:4;stroke-dasharray:none;stroke-opacity:1;marker:none;filter:url(#filter8778);enable-background:accumulate" />
      <ellipse
         transform="matrix(0,1,1,0,-10,29.709818)"
         id="path3810-4"
         style="color:#000000;display:inline;overflow:visible;visibility:visible;fill:#93a1a1;fill-opacity:1;fill-rule:nonzero;stroke:#000000;stroke-width:1;stroke-miterlimit:4;stroke-dasharray:none;stroke-opacity:1;marker:none;filter:url(#filter8802);enable-background:accumulate"
         cx="391.02243"
         cy="83.529762"
         rx="8.1022377"
         ry="8.112752" />
    </g>
    <path
       style="opacity:1;vector-effect:none;fill:none;fill-opacity:1;stroke:#000000;stroke-width:1.00157285;stroke-linecap:butt;stroke-linejoin:miter;stroke-miterlimit:7;stroke-dasharray:none;stroke-dashoffset:0;stroke-opacity:1;marker-end:url(#marker6640)"
       d="m 180.84119,420.74002 h 25.40486"
       id="path3841-8"
       inkscape:path-effect="#path-effect3843-4"
       inkscape:original-d="m 180.84119,420.74002 c 25.40486,0 25.40486,0 25.40486,0"
       inkscape:connector-curvature="0" />
    <flowRoot
       xml:space="preserve"
       id="flowRoot4316"
       style="font-style:normal;font-variant:normal;font-weight:normal;font-stretch:normal;font-size:32.89138412px;line-height:0.01%;font-family:Carlito;-inkscape-font-specification:Carlito;letter-spacing:0px;word-spacing:0px;fill:#000000;fill-opacity:1;stroke:none;stroke-width:2.46685386"
       transform="matrix(0.40563759,0,0,0.40511189,-44.425448,280.0304)"><flowRegion
         id="flowRegion4318"
         style="font-style:normal;font-variant:normal;font-weight:normal;font-stretch:normal;font-size:32.89138412px;font-family:Carlito;-inkscape-font-specification:Carlito;stroke-width:2.46685386"><rect
           id="rect4320"
           width="333.35034"
           height="102.02541"
           x="236.3757"
           y="285.6564"
           style="font-style:normal;font-variant:normal;font-weight:normal;font-stretch:normal;font-size:32.89138412px;font-family:Carlito;-inkscape-font-specification:Carlito;stroke-width:2.46685386" /></flowRegion><flowPara
         style="font-style:normal;font-variant:normal;font-weight:normal;font-stretch:normal;font-size:32.89138412px;line-height:1.25;font-family:Carlito;-inkscape-font-specification:Carlito;text-align:center;text-anchor:middle;stroke-width:2.46685386"
         id="flowPara4403">Quantum channel</flowPara></flowRoot>    <path
       style="opacity:1;vector-effect:none;fill:none;fill-opacity:1;stroke:#000000;stroke-width:1.00157285;stroke-linecap:butt;stroke-linejoin:miter;stroke-miterlimit:7;stroke-dasharray:none;stroke-dashoffset:0;stroke-opacity:1;marker-end:url(#marker6371)"
       d="m 31.800701,420.74002 h 25.40486"
       id="path3841"
       inkscape:path-effect="#path-effect3843"
       inkscape:original-d="m 31.800701,420.74002 c 25.40486,0 25.40486,0 25.40486,0"
       inkscape:connector-curvature="0" />
    <path
       style="color:#000000;display:inline;overflow:visible;visibility:visible;fill:#cb4b16;fill-opacity:1;fill-rule:nonzero;stroke:#000000;stroke-width:1;stroke-miterlimit:4;stroke-dasharray:none;stroke-opacity:1;marker:none;filter:url(#filter8613);enable-background:accumulate"
       d="m 223.17711,466.77449 c -6.49279,0 -11.75625,5.2069 -11.75625,11.62995 0,5.10018 3.31786,9.43136 7.93547,10.99999 -6.81149,3.37339 -11.85421,15.57032 -11.85421,30.09248 h 31.34999 c 0,-14.52216 -5.04273,-26.71909 -11.85422,-30.09248 4.61761,-1.56863 7.93546,-5.89981 7.93546,-10.99999 0,-6.42305 -5.26344,-11.62995 -11.75624,-11.62995 z"
       id="path2985-15"
       inkscape:connector-curvature="0" />
    <path
       style="color:#000000;display:inline;overflow:visible;visibility:visible;fill:#0d5f74;fill-opacity:1;fill-rule:nonzero;stroke:#000000;stroke-width:1;stroke-miterlimit:4;stroke-dasharray:none;stroke-opacity:1;marker:none;filter:url(#filter8625);enable-background:accumulate"
       d="m 15.527094,466.77449 c -6.49279,0 -11.75625,5.2069 -11.75625,11.62995 0,5.10018 3.31786,9.43136 7.93547,10.99999 -6.81149,3.37339 -11.85421,15.57032 -11.85421,30.09248 h 31.34998 c 0,-14.52216 -5.04272,-26.71909 -11.85421,-30.09248 4.61761,-1.56863 7.93546,-5.89981 7.93546,-10.99999 0,-6.42305 -5.26345,-11.62995 -11.75624,-11.62995 z"
       id="path2985-1-2"
       inkscape:connector-curvature="0" />
    <path
       style="opacity:1;vector-effect:none;fill:none;fill-opacity:1;stroke:#000000;stroke-width:1.00157285;stroke-linecap:butt;stroke-linejoin:miter;stroke-miterlimit:7;stroke-dasharray:none;stroke-dashoffset:0;stroke-opacity:1;marker-start:url(#Arrow2Mstart);marker-end:url(#marker6781)"
       d="M 54.385852,493.14532 H 183.13062"
       id="path3841-4"
       inkscape:path-effect="#path-effect3843-1"
       inkscape:original-d="m 54.385852,493.14532 c 128.744768,0 128.744768,0 128.744768,0"
       inkscape:connector-curvature="0" />
    <flowRoot
       xml:space="preserve"
       id="flowRoot4316-2"
       style="font-style:normal;font-variant:normal;font-weight:normal;font-stretch:normal;font-size:32.89138412px;line-height:0.01%;font-family:Carlito;-inkscape-font-specification:Carlito;letter-spacing:0px;word-spacing:0px;opacity:1;vector-effect:none;fill:#000000;fill-opacity:1;stroke:none;stroke-width:2.46685386;stroke-linecap:butt;stroke-linejoin:miter;stroke-miterlimit:4;stroke-dasharray:none;stroke-dashoffset:0;stroke-opacity:1"
       transform="matrix(0.40563759,0,0,0.40511189,-44.712092,361.18377)"><flowRegion
         id="flowRegion4318-3"
         style="font-style:normal;font-variant:normal;font-weight:normal;font-stretch:normal;font-size:32.89138412px;font-family:Carlito;-inkscape-font-specification:Carlito;vector-effect:none;fill:#000000;fill-opacity:1;stroke:none;stroke-width:2.46685386;stroke-linecap:butt;stroke-linejoin:miter;stroke-miterlimit:4;stroke-dasharray:none;stroke-dashoffset:0;stroke-opacity:1"><rect
           id="rect4320-2"
           width="333.35034"
           height="102.02541"
           x="236.3757"
           y="285.6564"
           style="font-style:normal;font-variant:normal;font-weight:normal;font-stretch:normal;font-size:32.89138412px;font-family:Carlito;-inkscape-font-specification:Carlito;vector-effect:none;fill:#000000;fill-opacity:1;stroke:none;stroke-width:2.46685386;stroke-linecap:butt;stroke-linejoin:miter;stroke-miterlimit:4;stroke-dasharray:none;stroke-dashoffset:0;stroke-opacity:1" /></flowRegion><flowPara
         style="font-style:normal;font-variant:normal;font-weight:normal;font-stretch:normal;font-size:32.89138412px;line-height:1.25;font-family:Carlito;-inkscape-font-specification:Carlito;text-align:center;text-anchor:middle;vector-effect:none;fill:#000000;fill-opacity:1;stroke:none;stroke-width:2.46685386;stroke-linecap:butt;stroke-linejoin:miter;stroke-miterlimit:4;stroke-dasharray:none;stroke-dashoffset:0;stroke-opacity:1"
         id="flowPara4403-1">Public discussion</flowPara></flowRoot>    <path
       style="color:#000000;display:inline;overflow:visible;visibility:visible;fill:#cb4b16;fill-opacity:1;fill-rule:nonzero;stroke:#000000;stroke-width:1;stroke-miterlimit:4;stroke-dasharray:none;stroke-opacity:1;marker:none;filter:url(#filter8613);enable-background:accumulate"
       d="m 223.17709,539.17793 c -6.49279,0 -11.75625,5.20691 -11.75625,11.62995 0,5.10018 3.31786,9.43136 7.93547,11 -6.81149,3.37338 -11.85421,15.57031 -11.85421,30.09247 h 31.34999 c 0,-14.52216 -5.04273,-26.71909 -11.85422,-30.09247 4.61761,-1.56864 7.93546,-5.89982 7.93546,-11 0,-6.42304 -5.26344,-11.62995 -11.75624,-11.62995 z"
       id="path2985-15-6"
       inkscape:connector-curvature="0" />
    <path
       style="color:#000000;display:inline;overflow:visible;visibility:visible;fill:#0d5f74;fill-opacity:1;fill-rule:nonzero;stroke:#000000;stroke-width:1;stroke-miterlimit:4;stroke-dasharray:none;stroke-opacity:1;marker:none;filter:url(#filter8625);enable-background:accumulate"
       d="m 15.527094,539.17793 c -6.49279,0 -11.75625,5.20691 -11.75625,11.62995 0,5.10018 3.31786,9.43136 7.93547,11 -6.81149,3.37338 -11.85421,15.57031 -11.85421,30.09247 h 31.34998 c 0,-14.52216 -5.04272,-26.71909 -11.85421,-30.09247 4.61761,-1.56864 7.93546,-5.89982 7.93546,-11 0,-6.42304 -5.26345,-11.62995 -11.75624,-11.62995 z"
       id="path2985-1-2-8"
       inkscape:connector-curvature="0" />
    <flowRoot
       xml:space="preserve"
       id="flowRoot4316-2-0"
       style="font-style:normal;font-variant:normal;font-weight:normal;font-stretch:normal;font-size:32.89138412px;line-height:0.01%;font-family:Carlito;-inkscape-font-specification:Carlito;letter-spacing:0px;word-spacing:0px;fill:#000000;fill-opacity:1;stroke:none;stroke-width:2.46685386"
       transform="matrix(0.40563759,0,0,0.40511189,-44.712093,445.45684)"><flowRegion
         id="flowRegion4318-3-0"
         style="font-style:normal;font-variant:normal;font-weight:normal;font-stretch:normal;font-size:32.89138412px;font-family:Carlito;-inkscape-font-specification:Carlito;stroke-width:2.46685386"><rect
           id="rect4320-2-5"
           width="333.35034"
           height="102.02541"
           x="236.3757"
           y="285.6564"
           style="font-style:normal;font-variant:normal;font-weight:normal;font-stretch:normal;font-size:32.89138412px;font-family:Carlito;-inkscape-font-specification:Carlito;stroke-width:2.46685386" /></flowRegion><flowPara
         style="font-style:normal;font-variant:normal;font-weight:normal;font-stretch:normal;font-size:32.89138412px;line-height:1.25;font-family:Carlito;-inkscape-font-specification:Carlito;text-align:center;text-anchor:middle;stroke-width:2.46685386"
         id="flowPara4403-1-7">Privacy amplification</flowPara></flowRoot>    <g
       id="g4775"
       transform="translate(0.52117071)">
      <path
         inkscape:connector-curvature="0"
         inkscape:original-d="m 45.06821,559.98714 c 0,15.84725 0,15.84725 0,15.84725"
         inkscape:path-effect="#path-effect3843-7-3-3-5"
         id="path3841-9-8-2-6"
         d="m 45.06821,559.98714 v 15.84725"
         style="opacity:1;vector-effect:none;fill:none;fill-opacity:1;stroke:#000000;stroke-width:1.00157285;stroke-linecap:butt;stroke-linejoin:miter;stroke-miterlimit:7;stroke-dasharray:none;stroke-dashoffset:0;stroke-opacity:1;marker-end:url(#marker6946-6-1)" />
      <flowRoot
         transform="matrix(0.40563759,0,0,0.40511189,-60.64512,459.76198)"
         style="font-style:normal;font-variant:normal;font-weight:normal;font-stretch:normal;font-size:32.89138412px;line-height:0.01%;font-family:Carlito;-inkscape-font-specification:Carlito;letter-spacing:0px;word-spacing:0px;fill:#000000;fill-opacity:1;stroke:none;stroke-width:2.46685386"
         id="flowRoot4316-8-5-8-0-6"
         xml:space="preserve"><flowRegion
           style="font-style:normal;font-variant:normal;font-weight:normal;font-stretch:normal;font-size:32.89138412px;font-family:Carlito;-inkscape-font-specification:Carlito;stroke-width:2.46685386"
           id="flowRegion4318-2-1-4-2-4"><rect
             style="font-style:normal;font-variant:normal;font-weight:normal;font-stretch:normal;font-size:32.89138412px;font-family:Carlito;-inkscape-font-specification:Carlito;stroke-width:2.46685386"
             y="285.6564"
             x="236.3757"
             height="50.507633"
             width="331.33002"
             id="rect4320-4-7-7-9-8" /></flowRegion><flowPara
           style="font-style:normal;font-variant:normal;font-weight:normal;font-stretch:normal;font-size:32.89138412px;line-height:1.25;font-family:Carlito;-inkscape-font-specification:Carlito;stroke-width:2.46685386"
           id="flowPara4322-5-1-0-0-3">key</flowPara></flowRoot>      <flowRoot
         transform="matrix(0.40563759,0,0,0.40511189,-56.15979,429.76197)"
         style="font-style:normal;font-variant:normal;font-weight:normal;font-stretch:normal;font-size:32.89138412px;line-height:0.01%;font-family:Carlito;-inkscape-font-specification:Carlito;letter-spacing:0px;word-spacing:0px;fill:#000000;fill-opacity:1;stroke:none;stroke-width:2.46685386"
         id="flowRoot4316-8-5-9-1-3"
         xml:space="preserve"><flowRegion
           style="font-style:normal;font-variant:normal;font-weight:normal;font-stretch:normal;font-size:32.89138412px;font-family:Carlito;-inkscape-font-specification:Carlito;stroke-width:2.46685386"
           id="flowRegion4318-2-1-0-6-2"><rect
             style="font-style:normal;font-variant:normal;font-weight:normal;font-stretch:normal;font-size:32.89138412px;font-family:Carlito;-inkscape-font-specification:Carlito;stroke-width:2.46685386"
             y="285.6564"
             x="236.3757"
             height="50.507633"
             width="331.33002"
             id="rect4320-4-7-8-6-4" /></flowRegion><flowPara
           style="font-style:normal;font-variant:normal;font-weight:normal;font-stretch:normal;font-size:32.89138412px;line-height:1.25;font-family:Carlito;-inkscape-font-specification:Carlito;stroke-width:2.46685386"
           id="flowPara4322-5-1-00-6-9">m</flowPara></flowRoot>    </g>
    <g
       id="g4775-9"
       transform="translate(149.56166)">
      <path
         inkscape:connector-curvature="0"
         inkscape:original-d="m 45.06821,559.98714 c 0,15.84725 0,15.84725 0,15.84725"
         inkscape:path-effect="#path-effect3843-7-3-3-5-0"
         id="path3841-9-8-2-6-3"
         d="m 45.06821,559.98714 v 15.84725"
         style="opacity:1;vector-effect:none;fill:none;fill-opacity:1;stroke:#000000;stroke-width:1.00157285;stroke-linecap:butt;stroke-linejoin:miter;stroke-miterlimit:7;stroke-dasharray:none;stroke-dashoffset:0;stroke-opacity:1;marker-end:url(#marker6946-6-1-6)" />
      <flowRoot
         transform="matrix(0.40563759,0,0,0.40511189,-60.64512,459.76198)"
         style="font-style:normal;font-variant:normal;font-weight:normal;font-stretch:normal;font-size:32.89138412px;line-height:0.01%;font-family:Carlito;-inkscape-font-specification:Carlito;letter-spacing:0px;word-spacing:0px;fill:#000000;fill-opacity:1;stroke:none;stroke-width:2.46685386"
         id="flowRoot4316-8-5-8-0-6-9"
         xml:space="preserve"><flowRegion
           style="font-style:normal;font-variant:normal;font-weight:normal;font-stretch:normal;font-size:32.89138412px;font-family:Carlito;-inkscape-font-specification:Carlito;stroke-width:2.46685386"
           id="flowRegion4318-2-1-4-2-4-0"><rect
             style="font-style:normal;font-variant:normal;font-weight:normal;font-stretch:normal;font-size:32.89138412px;font-family:Carlito;-inkscape-font-specification:Carlito;stroke-width:2.46685386"
             y="285.6564"
             x="236.3757"
             height="50.507633"
             width="331.33002"
             id="rect4320-4-7-7-9-8-3" /></flowRegion><flowPara
           style="font-style:normal;font-variant:normal;font-weight:normal;font-stretch:normal;font-size:32.89138412px;line-height:1.25;font-family:Carlito;-inkscape-font-specification:Carlito;stroke-width:2.46685386"
           id="flowPara4322-5-1-0-0-3-7">key</flowPara></flowRoot>      <flowRoot
         transform="matrix(0.40563759,0,0,0.40511189,-56.15979,429.76197)"
         style="font-style:normal;font-variant:normal;font-weight:normal;font-stretch:normal;font-size:32.89138412px;line-height:0.01%;font-family:Carlito;-inkscape-font-specification:Carlito;letter-spacing:0px;word-spacing:0px;fill:#000000;fill-opacity:1;stroke:none;stroke-width:2.46685386"
         id="flowRoot4316-8-5-9-1-3-3"
         xml:space="preserve"><flowRegion
           style="font-style:normal;font-variant:normal;font-weight:normal;font-stretch:normal;font-size:32.89138412px;font-family:Carlito;-inkscape-font-specification:Carlito;stroke-width:2.46685386"
           id="flowRegion4318-2-1-0-6-2-2"><rect
             style="font-style:normal;font-variant:normal;font-weight:normal;font-stretch:normal;font-size:32.89138412px;font-family:Carlito;-inkscape-font-specification:Carlito;stroke-width:2.46685386"
             y="285.6564"
             x="236.3757"
             height="50.507633"
             width="331.33002"
             id="rect4320-4-7-8-6-4-2" /></flowRegion><flowPara
           style="font-style:normal;font-variant:normal;font-weight:normal;font-stretch:normal;font-size:32.89138412px;line-height:1.25;font-family:Carlito;-inkscape-font-specification:Carlito;stroke-width:2.46685386"
           id="flowPara4322-5-1-00-6-9-0">m</flowPara></flowRoot>    </g>
    <path
       style="opacity:1;vector-effect:none;fill:none;fill-opacity:1;stroke:#000000;stroke-width:1.00157285;stroke-linecap:butt;stroke-linejoin:miter;stroke-miterlimit:7;stroke-dasharray:none;stroke-dashoffset:0;stroke-opacity:1;marker-end:url(#marker6946-6-1-6-5)"
       d="m 194.62987,484.45846 v 15.84725"
       id="path3841-9-8-2-6-3-2"
       inkscape:path-effect="#path-effect3843-7-3-3-5-0-7"
       inkscape:original-d="m 194.62987,484.45846 c 0,15.84725 0,15.84725 0,15.84725"
       inkscape:connector-curvature="0" />
    <flowRoot
       xml:space="preserve"
       id="flowRoot4316-8-5-8-0-6-9-4"
       style="font-style:normal;font-variant:normal;font-weight:normal;font-stretch:normal;font-size:32.89138412px;line-height:0.01%;font-family:Carlito;-inkscape-font-specification:Carlito;letter-spacing:0px;word-spacing:0px;fill:#000000;fill-opacity:1;stroke:none;stroke-width:2.46685386"
       transform="matrix(0.40563759,0,0,0.40511189,93.375818,384.2333)"><flowRegion
         id="flowRegion4318-2-1-4-2-4-0-8"
         style="font-style:normal;font-variant:normal;font-weight:normal;font-stretch:normal;font-size:32.89138412px;font-family:Carlito;-inkscape-font-specification:Carlito;stroke-width:2.46685386"><rect
           id="rect4320-4-7-7-9-8-3-6"
           width="331.33002"
           height="50.507633"
           x="236.3757"
           y="285.6564"
           style="font-style:normal;font-variant:normal;font-weight:normal;font-stretch:normal;font-size:32.89138412px;font-family:Carlito;-inkscape-font-specification:Carlito;stroke-width:2.46685386" /></flowRegion><flowPara
         id="flowPara4322-5-1-0-0-3-7-6"
         style="font-style:normal;font-variant:normal;font-weight:normal;font-stretch:normal;font-size:32.89138412px;line-height:1.25;font-family:Carlito;-inkscape-font-specification:Carlito;stroke-width:2.46685386">m</flowPara></flowRoot>    <flowRoot
       xml:space="preserve"
       id="flowRoot4316-8-5-9-1-3-3-3"
       style="font-style:normal;font-variant:normal;font-weight:normal;font-stretch:normal;font-size:32.89138412px;line-height:0.01%;font-family:Carlito;-inkscape-font-specification:Carlito;letter-spacing:0px;word-spacing:0px;fill:#000000;fill-opacity:1;stroke:none;stroke-width:2.46685386"
       transform="matrix(0.40563759,0,0,0.40511189,93.401872,354.23329)"><flowRegion
         id="flowRegion4318-2-1-0-6-2-2-5"
         style="font-style:normal;font-variant:normal;font-weight:normal;font-stretch:normal;font-size:32.89138412px;font-family:Carlito;-inkscape-font-specification:Carlito;stroke-width:2.46685386"><rect
           id="rect4320-4-7-8-6-4-2-6"
           width="331.33002"
           height="50.507633"
           x="236.3757"
           y="285.6564"
           style="font-style:normal;font-variant:normal;font-weight:normal;font-stretch:normal;font-size:32.89138412px;font-family:Carlito;-inkscape-font-specification:Carlito;stroke-width:2.46685386" /></flowRegion><flowPara
         id="flowPara4322-5-1-00-6-9-0-2"
         style="font-style:normal;font-variant:normal;font-weight:normal;font-stretch:normal;font-size:32.89138412px;line-height:1.25;font-family:Carlito;-inkscape-font-specification:Carlito;stroke-width:2.46685386">m</flowPara></flowRoot>    <flowRoot
       transform="matrix(0.40563759,0,0,0.40511189,186.42631,197.9012)"
       xml:space="preserve"
       id="flowRoot4856-9-4"
       style="font-style:normal;font-variant:normal;font-weight:normal;font-stretch:normal;font-size:32.89138412px;line-height:0.01%;font-family:Carlito;-inkscape-font-specification:Carlito;letter-spacing:0px;word-spacing:0px;fill:#000000;fill-opacity:1;stroke:none;stroke-width:2.46685386"><flowRegion
         id="flowRegion4858-8-2"
         style="font-style:normal;font-variant:normal;font-weight:normal;font-stretch:normal;font-size:32.89138412px;font-family:Carlito;-inkscape-font-specification:Carlito;stroke-width:2.46685386"><rect
           id="rect4860-6-1"
           width="116.16754"
           height="79.802048"
           x="12.121831"
           y="660.42297"
           style="font-style:normal;font-variant:normal;font-weight:normal;font-stretch:normal;font-size:32.89138412px;font-family:Carlito;-inkscape-font-specification:Carlito;stroke-width:2.46685386" /></flowRegion><flowPara
         id="flowPara4862-5-2"
         style="font-style:normal;font-variant:normal;font-weight:normal;font-stretch:normal;font-size:32.89138412px;line-height:1.25;font-family:Carlito;-inkscape-font-specification:Carlito;stroke-width:2.46685386">~</flowPara></flowRoot>    <g
       id="g5241"
       transform="translate(-71.317379,-51.578695)">
      <flowRoot
         xml:space="preserve"
         id="flowRoot4316-8-5-9-1-3-3-3-3"
         style="font-style:normal;font-variant:normal;font-weight:normal;font-stretch:normal;font-size:32.89138412px;line-height:0.01%;font-family:'Carlito';-inkscape-font-specification:'Carlito';letter-spacing:0px;word-spacing:0px;fill:#000000;fill-opacity:1;stroke:none;stroke-width:2.46685386"
         transform="matrix(0.40563759,0,0,0.40511189,164.35443,341.68566)"><flowRegion
           id="flowRegion4318-2-1-0-6-2-2-5-6"
           style="font-style:normal;font-variant:normal;font-weight:normal;font-stretch:normal;font-size:32.89138412px;font-family:'Carlito';-inkscape-font-specification:'Carlito';stroke-width:2.46685386"><rect
             id="rect4320-4-7-8-6-4-2-6-2"
             width="331.33002"
             height="50.507633"
             x="236.3757"
             y="285.6564"
             style="font-style:normal;font-variant:normal;font-weight:normal;font-stretch:normal;font-size:32.89138412px;font-family:'Carlito';-inkscape-font-specification:'Carlito';stroke-width:2.46685386" /></flowRegion><flowPara
           id="flowPara4322-5-1-00-6-9-0-2-6"
           style="font-style:normal;font-variant:normal;font-weight:normal;font-stretch:normal;font-size:32.89138412px;line-height:1.25;font-family:Carlito;-inkscape-font-specification:Carlito;stroke-width:2.46685386">m</flowPara></flowRoot>      <flowRoot
         transform="matrix(0.40563759,0,0,0.40511189,257.37887,185.35357)"
         xml:space="preserve"
         id="flowRoot4856-9-4-4"
         style="font-style:normal;font-variant:normal;font-weight:normal;font-stretch:normal;font-size:32.89138412px;line-height:0.01%;font-family:Carlito;-inkscape-font-specification:Carlito;letter-spacing:0px;word-spacing:0px;fill:#000000;fill-opacity:1;stroke:none;stroke-width:2.46685386"><flowRegion
           id="flowRegion4858-8-2-0"
           style="font-style:normal;font-variant:normal;font-weight:normal;font-stretch:normal;font-size:32.89138412px;font-family:Carlito;-inkscape-font-specification:Carlito;stroke-width:2.46685386"><rect
             id="rect4860-6-1-5"
             width="116.16754"
             height="79.802048"
             x="12.121831"
             y="660.42297"
             style="font-style:normal;font-variant:normal;font-weight:normal;font-stretch:normal;font-size:32.89138412px;font-family:Carlito;-inkscape-font-specification:Carlito;stroke-width:2.46685386" /></flowRegion><flowPara
           id="flowPara4862-5-2-8"
           style="font-style:normal;font-variant:normal;font-weight:normal;font-stretch:normal;font-size:32.89138412px;line-height:1.25;font-family:Carlito;-inkscape-font-specification:Carlito;stroke-width:2.46685386">~</flowPara></flowRoot>    </g>
    <g
       id="g5241-7"
       transform="translate(-220.35787,-51.578693)">
      <flowRoot
         xml:space="preserve"
         id="flowRoot4316-8-5-9-1-3-3-3-3-1"
         style="font-style:normal;font-variant:normal;font-weight:normal;font-stretch:normal;font-size:32.89138412px;line-height:0.01%;font-family:'Carlito';-inkscape-font-specification:'Carlito';letter-spacing:0px;word-spacing:0px;fill:#000000;fill-opacity:1;stroke:none;stroke-width:2.46685386"
         transform="matrix(0.40563759,0,0,0.40511189,164.35443,341.68566)"><flowRegion
           id="flowRegion4318-2-1-0-6-2-2-5-6-3"
           style="font-style:normal;font-variant:normal;font-weight:normal;font-stretch:normal;font-size:32.89138412px;font-family:'Carlito';-inkscape-font-specification:'Carlito';stroke-width:2.46685386"><rect
             id="rect4320-4-7-8-6-4-2-6-2-2"
             width="331.33002"
             height="50.507633"
             x="236.3757"
             y="285.6564"
             style="font-style:normal;font-variant:normal;font-weight:normal;font-stretch:normal;font-size:32.89138412px;font-family:'Carlito';-inkscape-font-specification:'Carlito';stroke-width:2.46685386" /></flowRegion><flowPara
           id="flowPara4322-5-1-00-6-9-0-2-6-2"
           style="font-style:normal;font-variant:normal;font-weight:normal;font-stretch:normal;font-size:32.89138412px;line-height:1.25;font-family:Carlito;-inkscape-font-specification:Carlito;stroke-width:2.46685386">m</flowPara></flowRoot>    </g>
    <g
       id="g5241-7-6"
       transform="translate(-220.35787,26.518112)">
      <flowRoot
         xml:space="preserve"
         id="flowRoot4316-8-5-9-1-3-3-3-3-1-2"
         style="font-style:normal;font-variant:normal;font-weight:normal;font-stretch:normal;font-size:32.89138412px;line-height:0.01%;font-family:'Carlito';-inkscape-font-specification:'Carlito';letter-spacing:0px;word-spacing:0px;fill:#000000;fill-opacity:1;stroke:none;stroke-width:2.46685386"
         transform="matrix(0.40563759,0,0,0.40511189,164.35443,341.68566)"><flowRegion
           id="flowRegion4318-2-1-0-6-2-2-5-6-3-5"
           style="font-style:normal;font-variant:normal;font-weight:normal;font-stretch:normal;font-size:32.89138412px;font-family:'Carlito';-inkscape-font-specification:'Carlito';stroke-width:2.46685386"><rect
             id="rect4320-4-7-8-6-4-2-6-2-2-4"
             width="331.33002"
             height="50.507633"
             x="236.3757"
             y="285.6564"
             style="font-style:normal;font-variant:normal;font-weight:normal;font-stretch:normal;font-size:32.89138412px;font-family:'Carlito';-inkscape-font-specification:'Carlito';stroke-width:2.46685386" /></flowRegion><flowPara
           id="flowPara4322-5-1-00-6-9-0-2-6-2-1"
           style="font-style:normal;font-variant:normal;font-weight:normal;font-stretch:normal;font-size:32.89138412px;line-height:1.25;font-family:Carlito;-inkscape-font-specification:Carlito;stroke-width:2.46685386">m</flowPara></flowRoot>    </g>
    <path
       style="opacity:1;vector-effect:none;fill:none;fill-opacity:1;fill-rule:evenodd;stroke:#000000;stroke-width:1.00157285;stroke-linecap:butt;stroke-linejoin:miter;stroke-miterlimit:7;stroke-dasharray:none;stroke-dashoffset:0;stroke-opacity:1;marker-end:url(#marker6543)"
       d="m 106.37903,495.61454 c 0,0 2.30909,5.95195 4.87532,7.43357 2.56624,1.48161 6.30909,-0.97625 8.87532,0.50536 2.56624,1.48162 2.30909,5.95196 4.87533,7.43358 2.56623,1.48161 6.30908,-0.97625 8.87532,0.50536 2.56623,1.48162 4.87532,7.43357 4.87532,7.43357"
       id="path6342"
       inkscape:connector-curvature="0"
       sodipodi:nodetypes="czzzzc" />
    <flowRoot
       xml:space="preserve"
       id="flowRoot4316-2-5"
       style="font-style:normal;font-variant:normal;font-weight:normal;font-stretch:normal;font-size:32.89138412px;line-height:0.01%;font-family:Carlito;-inkscape-font-specification:Carlito;letter-spacing:0px;word-spacing:0px;opacity:1;vector-effect:none;fill:#000000;fill-opacity:1;stroke:none;stroke-width:2.46685386;stroke-linecap:butt;stroke-linejoin:miter;stroke-miterlimit:4;stroke-dasharray:none;stroke-dashoffset:0;stroke-opacity:1"
       transform="matrix(0.40563759,0,0,0.40511189,-2.8828171,403.48383)"><flowRegion
         id="flowRegion4318-3-3"
         style="font-style:normal;font-variant:normal;font-weight:normal;font-stretch:normal;font-size:32.89138412px;font-family:Carlito;-inkscape-font-specification:Carlito;vector-effect:none;fill:#000000;fill-opacity:1;stroke:none;stroke-width:2.46685386;stroke-linecap:butt;stroke-linejoin:miter;stroke-miterlimit:4;stroke-dasharray:none;stroke-dashoffset:0;stroke-opacity:1"><rect
           id="rect4320-2-0"
           width="333.35034"
           height="102.02541"
           x="236.3757"
           y="285.6564"
           style="font-style:normal;font-variant:normal;font-weight:normal;font-stretch:normal;font-size:32.89138412px;font-family:Carlito;-inkscape-font-specification:Carlito;vector-effect:none;fill:#000000;fill-opacity:1;stroke:none;stroke-width:2.46685386;stroke-linecap:butt;stroke-linejoin:miter;stroke-miterlimit:4;stroke-dasharray:none;stroke-dashoffset:0;stroke-opacity:1" /></flowRegion><flowPara
         style="font-style:normal;font-variant:normal;font-weight:normal;font-stretch:normal;font-size:32.89138412px;line-height:1.25;font-family:Carlito;-inkscape-font-specification:Carlito;text-align:center;text-anchor:middle;vector-effect:none;fill:#000000;fill-opacity:1;stroke:none;stroke-width:2.46685386;stroke-linecap:butt;stroke-linejoin:miter;stroke-miterlimit:4;stroke-dasharray:none;stroke-dashoffset:0;stroke-opacity:1"
         id="flowPara4403-1-0">leakage</flowPara></flowRoot>  </g>
</svg>
