<?xml version="1.0" encoding="UTF-8" standalone="no"?>
<!-- Created with Inkscape (http://www.inkscape.org/) -->

<svg
   xmlns:dc="http://purl.org/dc/elements/1.1/"
   xmlns:cc="http://creativecommons.org/ns#"
   xmlns:rdf="http://www.w3.org/1999/02/22-rdf-syntax-ns#"
   xmlns:svg="http://www.w3.org/2000/svg"
   xmlns="http://www.w3.org/2000/svg"
   xmlns:sodipodi="http://sodipodi.sourceforge.net/DTD/sodipodi-0.dtd"
   xmlns:inkscape="http://www.inkscape.org/namespaces/inkscape"
   width="250"
   height="200"
   id="svg2"
   version="1.1"
   inkscape:version="0.92.1 r15371"
   sodipodi:docname="shared_ID_generation.svg">
  <defs
     id="defs4">
    <marker
       inkscape:isstock="true"
       style="overflow:visible"
       id="marker7135"
       refX="0"
       refY="0"
       orient="auto"
       inkscape:stockid="Arrow2Mend">
      <path
         inkscape:connector-curvature="0"
         transform="scale(-0.6)"
         d="M 8.7185878,4.0337352 -2.2072895,0.01601326 8.7185884,-4.0017078 c -1.7454984,2.3720609 -1.7354408,5.6174519 -6e-7,8.035443 z"
         style="fill:#000000;fill-opacity:1;fill-rule:evenodd;stroke:#000000;stroke-width:0.625;stroke-linejoin:round;stroke-opacity:1"
         id="path7133" />
    </marker>
    <marker
       inkscape:isstock="true"
       style="overflow:visible"
       id="marker6946"
       refX="0"
       refY="0"
       orient="auto"
       inkscape:stockid="Arrow2Mend">
      <path
         inkscape:connector-curvature="0"
         transform="scale(-0.6)"
         d="M 8.7185878,4.0337352 -2.2072895,0.01601326 8.7185884,-4.0017078 c -1.7454984,2.3720609 -1.7354408,5.6174519 -6e-7,8.035443 z"
         style="fill:#000000;fill-opacity:1;fill-rule:evenodd;stroke:#000000;stroke-width:0.625;stroke-linejoin:round;stroke-opacity:1"
         id="path6944" />
    </marker>
    <marker
       inkscape:isstock="true"
       style="overflow:visible"
       id="marker6781"
       refX="0"
       refY="0"
       orient="auto"
       inkscape:stockid="Arrow2Mend">
      <path
         inkscape:connector-curvature="0"
         transform="scale(-0.6)"
         d="M 8.7185878,4.0337352 -2.2072895,0.01601326 8.7185884,-4.0017078 c -1.7454984,2.3720609 -1.7354408,5.6174519 -6e-7,8.035443 z"
         style="fill:#000000;fill-opacity:1;fill-rule:evenodd;stroke:#000000;stroke-width:0.625;stroke-linejoin:round;stroke-opacity:1"
         id="path6779" />
    </marker>
    <marker
       inkscape:isstock="true"
       style="overflow:visible"
       id="marker6640"
       refX="0"
       refY="0"
       orient="auto"
       inkscape:stockid="Arrow2Mend">
      <path
         inkscape:connector-curvature="0"
         transform="scale(-0.6)"
         d="M 8.7185878,4.0337352 -2.2072895,0.01601326 8.7185884,-4.0017078 c -1.7454984,2.3720609 -1.7354408,5.6174519 -6e-7,8.035443 z"
         style="fill:#000000;fill-opacity:1;fill-rule:evenodd;stroke:#000000;stroke-width:0.625;stroke-linejoin:round;stroke-opacity:1"
         id="path6638" />
    </marker>
    <marker
       inkscape:stockid="Arrow2Mstart"
       orient="auto"
       refY="0"
       refX="0"
       id="Arrow2Mstart"
       style="overflow:visible">
      <path
         id="path3873"
         style="fill-rule:evenodd;stroke-width:0.625;stroke-linejoin:round"
         d="M 8.7185878,4.0337352 -2.2072895,0.01601326 8.7185884,-4.0017078 c -1.7454984,2.3720609 -1.7354408,5.6174519 -6e-7,8.035443 z"
         transform="scale(0.6)"
         inkscape:connector-curvature="0" />
    </marker>
    <marker
       inkscape:stockid="Arrow2Mend"
       orient="auto"
       refY="0"
       refX="0"
       id="Arrow2Mend"
       style="overflow:visible">
      <path
         id="path3876"
         style="fill-rule:evenodd;stroke-width:0.625;stroke-linejoin:round"
         d="M 8.7185878,4.0337352 -2.2072895,0.01601326 8.7185884,-4.0017078 c -1.7454984,2.3720609 -1.7354408,5.6174519 -6e-7,8.035443 z"
         transform="scale(-0.6)"
         inkscape:connector-curvature="0" />
    </marker>
    <inkscape:path-effect
       effect="spiro"
       id="path-effect3843"
       is_visible="true" />
    <marker
       inkscape:stockid="Arrow2Mend"
       orient="auto"
       refY="0"
       refX="0"
       id="Arrow2Mend-0"
       style="overflow:visible">
      <path
         inkscape:connector-curvature="0"
         id="path3876-9"
         style="fill-rule:evenodd;stroke-width:0.625;stroke-linejoin:round"
         d="M 8.7185878,4.0337352 -2.2072895,0.01601326 8.7185884,-4.0017078 c -1.7454984,2.3720609 -1.7354408,5.6174519 -6e-7,8.035443 z"
         transform="scale(-0.6)" />
    </marker>
    <inkscape:path-effect
       effect="spiro"
       id="path-effect3843-4"
       is_visible="true" />
    <marker
       inkscape:stockid="Arrow2Mend"
       orient="auto"
       refY="0"
       refX="0"
       id="Arrow2Mend-7"
       style="overflow:visible">
      <path
         inkscape:connector-curvature="0"
         id="path3876-6"
         style="fill-rule:evenodd;stroke-width:0.625;stroke-linejoin:round"
         d="M 8.7185878,4.0337352 -2.2072895,0.01601326 8.7185884,-4.0017078 c -1.7454984,2.3720609 -1.7354408,5.6174519 -6e-7,8.035443 z"
         transform="scale(-0.6)" />
    </marker>
    <inkscape:path-effect
       effect="spiro"
       id="path-effect3843-1"
       is_visible="true" />
    <marker
       inkscape:stockid="Arrow2Mend"
       orient="auto"
       refY="0"
       refX="0"
       id="Arrow2Mend-9"
       style="overflow:visible">
      <path
         inkscape:connector-curvature="0"
         id="path3876-2"
         style="fill-rule:evenodd;stroke-width:0.625;stroke-linejoin:round"
         d="M 8.7185878,4.0337352 -2.2072895,0.01601326 8.7185884,-4.0017078 c -1.7454984,2.3720609 -1.7354408,5.6174519 -6e-7,8.035443 z"
         transform="scale(-0.6)" />
    </marker>
    <inkscape:path-effect
       effect="spiro"
       id="path-effect3843-7"
       is_visible="true" />
    <marker
       inkscape:stockid="Arrow2Mend"
       orient="auto"
       refY="0"
       refX="0"
       id="Arrow2Mend-2"
       style="overflow:visible">
      <path
         inkscape:connector-curvature="0"
         id="path3876-3"
         style="fill-rule:evenodd;stroke-width:0.625;stroke-linejoin:round"
         d="M 8.7185878,4.0337352 -2.2072895,0.01601326 8.7185884,-4.0017078 c -1.7454984,2.3720609 -1.7354408,5.6174519 -6e-7,8.035443 z"
         transform="scale(-0.6)" />
    </marker>
    <inkscape:path-effect
       effect="spiro"
       id="path-effect3843-7-3"
       is_visible="true" />
    <marker
       inkscape:stockid="Arrow2Mend"
       orient="auto"
       refY="0"
       refX="0"
       id="marker6371-4"
       style="overflow:visible"
       inkscape:isstock="true">
      <path
         id="path6369-6"
         style="fill:#000000;fill-opacity:1;fill-rule:evenodd;stroke:#000000;stroke-width:0.625;stroke-linejoin:round;stroke-opacity:1"
         d="M 8.7185878,4.0337352 -2.2072895,0.01601326 8.7185884,-4.0017078 c -1.7454984,2.3720609 -1.7354408,5.6174519 -6e-7,8.035443 z"
         transform="scale(-0.6)"
         inkscape:connector-curvature="0" />
    </marker>
    <inkscape:path-effect
       effect="spiro"
       id="path-effect3843-5"
       is_visible="true" />
    <marker
       inkscape:stockid="Arrow2Mend"
       orient="auto"
       refY="0"
       refX="0"
       id="marker6371-5"
       style="overflow:visible"
       inkscape:isstock="true">
      <path
         id="path6369-5"
         style="fill:#000000;fill-opacity:1;fill-rule:evenodd;stroke:#000000;stroke-width:0.625;stroke-linejoin:round;stroke-opacity:1"
         d="M 8.7185878,4.0337352 -2.2072895,0.01601326 8.7185884,-4.0017078 c -1.7454984,2.3720609 -1.7354408,5.6174519 -6e-7,8.035443 z"
         transform="scale(-0.6)"
         inkscape:connector-curvature="0" />
    </marker>
    <inkscape:path-effect
       effect="spiro"
       id="path-effect3843-9"
       is_visible="true" />
    <marker
       inkscape:stockid="Arrow2Mend"
       orient="auto"
       refY="0"
       refX="0"
       id="marker6371-9"
       style="overflow:visible"
       inkscape:isstock="true">
      <path
         id="path6369-3"
         style="fill:#000000;fill-opacity:1;fill-rule:evenodd;stroke:#000000;stroke-width:0.625;stroke-linejoin:round;stroke-opacity:1"
         d="M 8.7185878,4.0337352 -2.2072895,0.01601326 8.7185884,-4.0017078 c -1.7454984,2.3720609 -1.7354408,5.6174519 -6e-7,8.035443 z"
         transform="scale(-0.6)"
         inkscape:connector-curvature="0" />
    </marker>
    <inkscape:path-effect
       effect="spiro"
       id="path-effect3843-98"
       is_visible="true" />
    <marker
       inkscape:stockid="Arrow2Mend"
       orient="auto"
       refY="0"
       refX="0"
       id="marker6371-58"
       style="overflow:visible"
       inkscape:isstock="true">
      <path
         id="path6369-9"
         style="fill:#000000;fill-opacity:1;fill-rule:evenodd;stroke:#000000;stroke-width:0.625;stroke-linejoin:round;stroke-opacity:1"
         d="M 8.7185878,4.0337352 -2.2072895,0.01601326 8.7185884,-4.0017078 c -1.7454984,2.3720609 -1.7354408,5.6174519 -6e-7,8.035443 z"
         transform="scale(-0.6)"
         inkscape:connector-curvature="0" />
    </marker>
    <inkscape:path-effect
       effect="spiro"
       id="path-effect3843-48"
       is_visible="true" />
    <marker
       inkscape:isstock="true"
       style="overflow:visible"
       id="marker6946-6"
       refX="0"
       refY="0"
       orient="auto"
       inkscape:stockid="Arrow2Mend">
      <path
         inkscape:connector-curvature="0"
         transform="scale(-0.6)"
         d="M 8.7185878,4.0337352 -2.2072895,0.01601326 8.7185884,-4.0017078 c -1.7454984,2.3720609 -1.7354408,5.6174519 -6e-7,8.035443 z"
         style="fill:#000000;fill-opacity:1;fill-rule:evenodd;stroke:#000000;stroke-width:0.625;stroke-linejoin:round;stroke-opacity:1"
         id="path6944-3" />
    </marker>
    <inkscape:path-effect
       effect="spiro"
       id="path-effect3843-7-3-3"
       is_visible="true" />
    <marker
       inkscape:stockid="Arrow2Mstart"
       orient="auto"
       refY="0"
       refX="0"
       id="Arrow2Mstart-3"
       style="overflow:visible">
      <path
         id="path3873-5"
         style="fill-rule:evenodd;stroke-width:0.625;stroke-linejoin:round"
         d="M 8.7185878,4.0337352 -2.2072895,0.01601326 8.7185884,-4.0017078 c -1.7454984,2.3720609 -1.7354408,5.6174519 -6e-7,8.035443 z"
         transform="scale(0.6)"
         inkscape:connector-curvature="0" />
    </marker>
    <marker
       inkscape:isstock="true"
       style="overflow:visible"
       id="marker6781-1"
       refX="0"
       refY="0"
       orient="auto"
       inkscape:stockid="Arrow2Mend">
      <path
         inkscape:connector-curvature="0"
         transform="scale(-0.6)"
         d="M 8.7185878,4.0337352 -2.2072895,0.01601326 8.7185884,-4.0017078 c -1.7454984,2.3720609 -1.7354408,5.6174519 -6e-7,8.035443 z"
         style="fill:#000000;fill-opacity:1;fill-rule:evenodd;stroke:#000000;stroke-width:0.625;stroke-linejoin:round;stroke-opacity:1"
         id="path6779-4" />
    </marker>
    <inkscape:path-effect
       effect="spiro"
       id="path-effect3843-1-9"
       is_visible="true" />
    <marker
       inkscape:isstock="true"
       style="overflow:visible"
       id="marker6946-6-1"
       refX="0"
       refY="0"
       orient="auto"
       inkscape:stockid="Arrow2Mend">
      <path
         inkscape:connector-curvature="0"
         transform="scale(-0.6)"
         d="M 8.7185878,4.0337352 -2.2072895,0.01601326 8.7185884,-4.0017078 c -1.7454984,2.3720609 -1.7354408,5.6174519 -6e-7,8.035443 z"
         style="fill:#000000;fill-opacity:1;fill-rule:evenodd;stroke:#000000;stroke-width:0.625;stroke-linejoin:round;stroke-opacity:1"
         id="path6944-3-4" />
    </marker>
    <inkscape:path-effect
       effect="spiro"
       id="path-effect3843-7-3-3-5"
       is_visible="true" />
    <filter
       style="color-interpolation-filters:sRGB"
       inkscape:label="Drop Shadow"
       id="filter8613">
      <feFlood
         flood-opacity="1"
         flood-color="rgb(0,0,0)"
         result="flood"
         id="feFlood8603" />
      <feComposite
         in="flood"
         in2="SourceGraphic"
         operator="in"
         result="composite1"
         id="feComposite8605" />
      <feGaussianBlur
         in="composite1"
         stdDeviation="0.3"
         result="blur"
         id="feGaussianBlur8607" />
      <feOffset
         dx="0.3"
         dy="0.3"
         result="offset"
         id="feOffset8609" />
      <feComposite
         in="SourceGraphic"
         in2="offset"
         operator="over"
         result="composite2"
         id="feComposite8611" />
    </filter>
    <filter
       style="color-interpolation-filters:sRGB"
       inkscape:label="Drop Shadow"
       id="filter8625">
      <feFlood
         flood-opacity="1"
         flood-color="rgb(0,0,0)"
         result="flood"
         id="feFlood8615" />
      <feComposite
         in="flood"
         in2="SourceGraphic"
         operator="in"
         result="composite1"
         id="feComposite8617" />
      <feGaussianBlur
         in="composite1"
         stdDeviation="0.3"
         result="blur"
         id="feGaussianBlur8619" />
      <feOffset
         dx="0.3"
         dy="0.3"
         result="offset"
         id="feOffset8621" />
      <feComposite
         in="SourceGraphic"
         in2="offset"
         operator="over"
         result="composite2"
         id="feComposite8623" />
    </filter>
    <filter
       style="color-interpolation-filters:sRGB"
       inkscape:label="Drop Shadow"
       id="filter8778">
      <feFlood
         flood-opacity="1"
         flood-color="rgb(0,0,0)"
         result="flood"
         id="feFlood8768" />
      <feComposite
         in="flood"
         in2="SourceGraphic"
         operator="in"
         result="composite1"
         id="feComposite8770" />
      <feGaussianBlur
         in="composite1"
         stdDeviation="0.3"
         result="blur"
         id="feGaussianBlur8772" />
      <feOffset
         dx="0.3"
         dy="0.3"
         result="offset"
         id="feOffset8774" />
      <feComposite
         in="SourceGraphic"
         in2="offset"
         operator="over"
         result="composite2"
         id="feComposite8776" />
    </filter>
    <filter
       style="color-interpolation-filters:sRGB"
       inkscape:label="Drop Shadow"
       id="filter8802">
      <feFlood
         flood-opacity="1"
         flood-color="rgb(0,0,0)"
         result="flood"
         id="feFlood8792" />
      <feComposite
         in="flood"
         in2="SourceGraphic"
         operator="in"
         result="composite1"
         id="feComposite8794" />
      <feGaussianBlur
         in="composite1"
         stdDeviation="0.3"
         result="blur"
         id="feGaussianBlur8796" />
      <feOffset
         dx="0.3"
         dy="0.3"
         result="offset"
         id="feOffset8798" />
      <feComposite
         in="SourceGraphic"
         in2="offset"
         operator="over"
         result="composite2"
         id="feComposite8800" />
    </filter>
    <filter
       style="color-interpolation-filters:sRGB"
       inkscape:label="Drop Shadow"
       id="filter6561">
      <feFlood
         flood-opacity="0.5"
         flood-color="rgb(0,0,0)"
         result="flood"
         id="feFlood6563" />
      <feComposite
         in="flood"
         in2="SourceGraphic"
         operator="in"
         result="composite1"
         id="feComposite6565" />
      <feGaussianBlur
         stdDeviation="2"
         result="blur"
         id="feGaussianBlur6567" />
      <feOffset
         dx="4"
         dy="4"
         result="offset"
         id="feOffset6569" />
      <feComposite
         in="SourceGraphic"
         in2="offset"
         operator="over"
         result="composite2"
         id="feComposite6571" />
    </filter>
    <filter
       style="color-interpolation-filters:sRGB"
       inkscape:label="Drop Shadow"
       id="filter7058">
      <feFlood
         flood-opacity="1"
         flood-color="rgb(0,0,0)"
         result="flood"
         id="feFlood7048" />
      <feComposite
         in="flood"
         in2="SourceGraphic"
         operator="in"
         result="composite1"
         id="feComposite7050" />
      <feGaussianBlur
         in="composite1"
         stdDeviation="0.3"
         result="blur"
         id="feGaussianBlur7052" />
      <feOffset
         dx="0.3"
         dy="0.3"
         result="offset"
         id="feOffset7054" />
      <feComposite
         in="SourceGraphic"
         in2="offset"
         operator="over"
         result="composite2"
         id="feComposite7056" />
    </filter>
    <filter
       style="color-interpolation-filters:sRGB"
       inkscape:label="Drop Shadow"
       id="filter7129">
      <feFlood
         flood-opacity="1"
         flood-color="rgb(0,0,0)"
         result="flood"
         id="feFlood7119" />
      <feComposite
         in="flood"
         in2="SourceGraphic"
         operator="in"
         result="composite1"
         id="feComposite7121" />
      <feGaussianBlur
         in="composite1"
         stdDeviation="0.3"
         result="blur"
         id="feGaussianBlur7123" />
      <feOffset
         dx="0.3"
         dy="0.3"
         result="offset"
         id="feOffset7125" />
      <feComposite
         in="SourceGraphic"
         in2="offset"
         operator="over"
         result="composite2"
         id="feComposite7127" />
    </filter>
    <filter
       style="color-interpolation-filters:sRGB"
       inkscape:label="Drop Shadow"
       id="filter7141">
      <feFlood
         flood-opacity="1"
         flood-color="rgb(0,0,0)"
         result="flood"
         id="feFlood7131" />
      <feComposite
         in="flood"
         in2="SourceGraphic"
         operator="in"
         result="composite1"
         id="feComposite7133" />
      <feGaussianBlur
         in="composite1"
         stdDeviation="0.3"
         result="blur"
         id="feGaussianBlur7135" />
      <feOffset
         dx="0.3"
         dy="0.3"
         result="offset"
         id="feOffset7137" />
      <feComposite
         in="SourceGraphic"
         in2="offset"
         operator="over"
         result="composite2"
         id="feComposite7139" />
    </filter>
    <marker
       inkscape:isstock="true"
       style="overflow:visible"
       id="marker6946-6-9"
       refX="0"
       refY="0"
       orient="auto"
       inkscape:stockid="Arrow2Mend">
      <path
         inkscape:connector-curvature="0"
         transform="scale(-0.6)"
         d="M 8.7185878,4.0337352 -2.2072895,0.01601326 8.7185884,-4.0017078 c -1.7454984,2.3720609 -1.7354408,5.6174519 -6e-7,8.035443 z"
         style="fill:#000000;fill-opacity:1;fill-rule:evenodd;stroke:#000000;stroke-width:0.625;stroke-linejoin:round;stroke-opacity:1"
         id="path6944-3-2" />
    </marker>
    <inkscape:path-effect
       effect="spiro"
       id="path-effect3843-7-3-3-8"
       is_visible="true" />
    <marker
       inkscape:stockid="Arrow2Mend"
       orient="auto"
       refY="0"
       refX="0"
       id="marker6543"
       style="overflow:visible"
       inkscape:isstock="true">
      <path
         id="path6541"
         style="fill:#000000;fill-opacity:1;fill-rule:evenodd;stroke:#000000;stroke-width:0.625;stroke-linejoin:round;stroke-opacity:1"
         d="M 8.7185878,4.0337352 -2.2072895,0.01601326 8.7185884,-4.0017078 c -1.7454984,2.3720609 -1.7354408,5.6174519 -6e-7,8.035443 z"
         transform="scale(-0.6)"
         inkscape:connector-curvature="0" />
    </marker>
  </defs>
  <sodipodi:namedview
     id="base"
     pagecolor="#ffffff"
     bordercolor="#666666"
     borderopacity="1.0"
     inkscape:pageopacity="0.0"
     inkscape:pageshadow="2"
     inkscape:zoom="2.8"
     inkscape:cx="-12.393637"
     inkscape:cy="52.912526"
     inkscape:document-units="px"
     inkscape:current-layer="layer1"
     showgrid="false"
     fit-margin-top="10"
     fit-margin-left="10"
     fit-margin-right="10"
     fit-margin-bottom="10"
     inkscape:window-width="1920"
     inkscape:window-height="1018"
     inkscape:window-x="-8"
     inkscape:window-y="-8"
     inkscape:window-maximized="1" />
  <metadata
     id="metadata7">
    <rdf:RDF>
      <cc:Work
         rdf:about="">
        <dc:format>image/svg+xml</dc:format>
        <dc:type
           rdf:resource="http://purl.org/dc/dcmitype/StillImage" />
        <dc:title />
      </cc:Work>
    </rdf:RDF>
  </metadata>
  <g
     inkscape:label="Calque 1"
     inkscape:groupmode="layer"
     id="layer1"
     transform="translate(3.282894,-393.82428)">
    <path
       style="opacity:1;vector-effect:none;fill:none;fill-opacity:1;stroke:#000000;stroke-width:1.00157285;stroke-linecap:butt;stroke-linejoin:miter;stroke-miterlimit:7;stroke-dasharray:none;stroke-dashoffset:0;stroke-opacity:1;marker-end:url(#marker6640)"
       d="M 33.466547,420.74002 H 208.45345"
       id="path3841-8"
       inkscape:path-effect="#path-effect3843-4"
       inkscape:original-d="M 33.466547,420.74002 H 208.45345"
       inkscape:connector-curvature="0"
       sodipodi:nodetypes="cc" />
    <path
       style="opacity:1;vector-effect:none;fill:none;fill-opacity:1;stroke:#000000;stroke-width:1.00157285;stroke-linecap:butt;stroke-linejoin:miter;stroke-miterlimit:7;stroke-dasharray:none;stroke-dashoffset:0;stroke-opacity:1;marker-start:url(#Arrow2Mstart);marker-end:url(#marker6781)"
       d="M 57.250842,493.14532 H 185.99561"
       id="path3841-4"
       inkscape:path-effect="#path-effect3843-1"
       inkscape:original-d="m 57.250842,493.14532 c 128.744768,0 128.744768,0 128.744768,0"
       inkscape:connector-curvature="0" />
    <path
       style="opacity:1;vector-effect:none;fill:none;fill-opacity:1;stroke:#000000;stroke-width:1.00157285;stroke-linecap:butt;stroke-linejoin:miter;stroke-miterlimit:7;stroke-dasharray:none;stroke-dashoffset:0;stroke-opacity:1;marker-end:url(#marker6946)"
       d="m 197.46095,486.45019 v 15.84725"
       id="path3841-9-8"
       inkscape:path-effect="#path-effect3843-7-3"
       inkscape:original-d="m 197.46095,486.45019 c 0,15.84725 0,15.84725 0,15.84725"
       inkscape:connector-curvature="0" />
    <path
       style="opacity:1;vector-effect:none;fill:none;fill-opacity:1;stroke:#000000;stroke-width:1.00157285;stroke-linecap:butt;stroke-linejoin:miter;stroke-miterlimit:7;stroke-dasharray:none;stroke-dashoffset:0;stroke-opacity:1;marker-end:url(#marker6946-6)"
       d="m 197.46095,559.98714 v 15.84725"
       id="path3841-9-8-2"
       inkscape:path-effect="#path-effect3843-7-3-3"
       inkscape:original-d="m 197.46095,559.98714 c 0,15.84725 0,15.84725 0,15.84725"
       inkscape:connector-curvature="0" />
    <g
       id="g5234"
       transform="matrix(1.331,0,0,1.331,57.003989,-148.84751)"
       style="stroke-width:0.75131482">
      <path
         inkscape:connector-curvature="0"
         id="path4787"
         d="m -44.162205,428.91639 h 2.9042"
         style="fill:none;stroke:#000000;stroke-width:0.75131482px;stroke-linecap:butt;stroke-linejoin:miter;stroke-opacity:1" />
      <path
         inkscape:connector-curvature="0"
         id="path4787-4"
         d="m -44.162205,430.88449 h 2.9042"
         style="fill:none;stroke:#000000;stroke-width:0.75131482px;stroke-linecap:butt;stroke-linejoin:miter;stroke-opacity:1" />
      <path
         inkscape:connector-curvature="0"
         id="path4787-4-8"
         d="m -44.162205,432.8526 h 2.9042"
         style="fill:none;stroke:#000000;stroke-width:0.75131482px;stroke-linecap:butt;stroke-linejoin:miter;stroke-opacity:1" />
      <path
         inkscape:connector-curvature="0"
         id="path4787-4-8-8"
         d="m -44.162205,434.82071 h 2.9042"
         style="fill:none;stroke:#000000;stroke-width:0.75131482px;stroke-linecap:butt;stroke-linejoin:miter;stroke-opacity:1" />
      <path
         inkscape:connector-curvature="0"
         id="path4787-45"
         d="m -21.066405,428.91639 h 2.9042"
         style="fill:none;stroke:#000000;stroke-width:0.75131482px;stroke-linecap:butt;stroke-linejoin:miter;stroke-opacity:1" />
      <path
         inkscape:connector-curvature="0"
         id="path4787-4-5"
         d="m -21.066405,430.88449 h 2.9042"
         style="fill:none;stroke:#000000;stroke-width:0.75131482px;stroke-linecap:butt;stroke-linejoin:miter;stroke-opacity:1" />
      <path
         inkscape:connector-curvature="0"
         id="path4787-4-8-1"
         d="m -21.066405,432.8526 h 2.9042"
         style="fill:none;stroke:#000000;stroke-width:0.75131482px;stroke-linecap:butt;stroke-linejoin:miter;stroke-opacity:1" />
      <path
         inkscape:connector-curvature="0"
         id="path4787-4-8-8-7"
         d="m -21.066405,434.82071 h 2.9042"
         style="fill:none;stroke:#000000;stroke-width:0.75131482px;stroke-linecap:butt;stroke-linejoin:miter;stroke-opacity:1" />
      <path
         inkscape:connector-curvature="0"
         id="path4787-1"
         d="m -24.273766,414.93231 v 2.9042"
         style="fill:none;stroke:#000000;stroke-width:0.75131482px;stroke-linecap:butt;stroke-linejoin:miter;stroke-opacity:1" />
      <path
         inkscape:connector-curvature="0"
         id="path4787-4-52"
         d="m -26.241882,414.93231 v 2.9042"
         style="fill:none;stroke:#000000;stroke-width:0.75131482px;stroke-linecap:butt;stroke-linejoin:miter;stroke-opacity:1" />
      <path
         inkscape:connector-curvature="0"
         id="path4787-4-8-7"
         d="m -28.209999,414.93231 v 2.9042"
         style="fill:none;stroke:#000000;stroke-width:0.75131482px;stroke-linecap:butt;stroke-linejoin:miter;stroke-opacity:1" />
      <path
         inkscape:connector-curvature="0"
         id="path4787-4-8-8-6"
         d="m -30.178116,414.93231 v 2.9042"
         style="fill:none;stroke:#000000;stroke-width:0.75131482px;stroke-linecap:butt;stroke-linejoin:miter;stroke-opacity:1" />
      <path
         inkscape:connector-curvature="0"
         id="path4787-1-4"
         d="m -24.273766,438.02811 v 2.9042"
         style="fill:none;stroke:#000000;stroke-width:0.75131482px;stroke-linecap:butt;stroke-linejoin:miter;stroke-opacity:1" />
      <path
         inkscape:connector-curvature="0"
         id="path4787-4-52-2"
         d="m -26.241882,438.02811 v 2.9042"
         style="fill:none;stroke:#000000;stroke-width:0.75131482px;stroke-linecap:butt;stroke-linejoin:miter;stroke-opacity:1" />
      <path
         inkscape:connector-curvature="0"
         id="path4787-4-8-7-3"
         d="m -28.209999,438.02811 v 2.9042"
         style="fill:none;stroke:#000000;stroke-width:0.75131482px;stroke-linecap:butt;stroke-linejoin:miter;stroke-opacity:1" />
      <path
         inkscape:connector-curvature="0"
         id="path4787-4-8-8-6-2"
         d="m -30.178116,438.02811 v 2.9042"
         style="fill:none;stroke:#000000;stroke-width:0.75131482px;stroke-linecap:butt;stroke-linejoin:miter;stroke-opacity:1" />
      <path
         inkscape:connector-curvature="0"
         id="path4787-1-44"
         d="m -32.146233,414.93231 v 2.9042"
         style="fill:none;stroke:#000000;stroke-width:0.75131482px;stroke-linecap:butt;stroke-linejoin:miter;stroke-opacity:1" />
      <path
         inkscape:connector-curvature="0"
         id="path4787-4-52-6"
         d="m -34.11435,414.93231 v 2.9042"
         style="fill:none;stroke:#000000;stroke-width:0.75131482px;stroke-linecap:butt;stroke-linejoin:miter;stroke-opacity:1" />
      <path
         inkscape:connector-curvature="0"
         id="path4787-4-8-7-6"
         d="m -36.082466,414.93231 v 2.9042"
         style="fill:none;stroke:#000000;stroke-width:0.75131482px;stroke-linecap:butt;stroke-linejoin:miter;stroke-opacity:1" />
      <path
         inkscape:connector-curvature="0"
         id="path4787-4-8-8-6-0"
         d="m -38.050583,414.93231 v 2.9042"
         style="fill:none;stroke:#000000;stroke-width:0.75131482px;stroke-linecap:butt;stroke-linejoin:miter;stroke-opacity:1" />
      <path
         inkscape:connector-curvature="0"
         id="path4787-45-8"
         d="m -21.066405,421.04395 h 2.9042"
         style="fill:none;stroke:#000000;stroke-width:0.75131482px;stroke-linecap:butt;stroke-linejoin:miter;stroke-opacity:1" />
      <path
         inkscape:connector-curvature="0"
         id="path4787-4-5-6"
         d="m -21.066405,423.01206 h 2.9042"
         style="fill:none;stroke:#000000;stroke-width:0.75131482px;stroke-linecap:butt;stroke-linejoin:miter;stroke-opacity:1" />
      <path
         inkscape:connector-curvature="0"
         id="path4787-4-8-1-1"
         d="m -21.066405,424.98017 h 2.9042"
         style="fill:none;stroke:#000000;stroke-width:0.75131482px;stroke-linecap:butt;stroke-linejoin:miter;stroke-opacity:1" />
      <path
         inkscape:connector-curvature="0"
         id="path4787-4-8-8-7-7"
         d="m -21.066405,426.94828 h 2.9042"
         style="fill:none;stroke:#000000;stroke-width:0.75131482px;stroke-linecap:butt;stroke-linejoin:miter;stroke-opacity:1" />
      <path
         inkscape:connector-curvature="0"
         id="path4787-1-4-2"
         d="m -32.146233,438.02811 v 2.9042"
         style="fill:none;stroke:#000000;stroke-width:0.75131482px;stroke-linecap:butt;stroke-linejoin:miter;stroke-opacity:1" />
      <path
         inkscape:connector-curvature="0"
         id="path4787-4-52-2-2"
         d="m -34.11435,438.02811 v 2.9042"
         style="fill:none;stroke:#000000;stroke-width:0.75131482px;stroke-linecap:butt;stroke-linejoin:miter;stroke-opacity:1" />
      <path
         inkscape:connector-curvature="0"
         id="path4787-4-8-7-3-5"
         d="m -36.082466,438.02811 v 2.9042"
         style="fill:none;stroke:#000000;stroke-width:0.75131482px;stroke-linecap:butt;stroke-linejoin:miter;stroke-opacity:1" />
      <path
         inkscape:connector-curvature="0"
         id="path4787-4-8-8-6-2-2"
         d="m -38.050583,438.02811 v 2.9042"
         style="fill:none;stroke:#000000;stroke-width:0.75131482px;stroke-linecap:butt;stroke-linejoin:miter;stroke-opacity:1" />
      <path
         inkscape:connector-curvature="0"
         id="path4787-2"
         d="m -44.162205,421.04395 h 2.9042"
         style="fill:none;stroke:#000000;stroke-width:0.75131482px;stroke-linecap:butt;stroke-linejoin:miter;stroke-opacity:1" />
      <path
         inkscape:connector-curvature="0"
         id="path4787-4-6"
         d="m -44.162205,423.01206 h 2.9042"
         style="fill:none;stroke:#000000;stroke-width:0.75131482px;stroke-linecap:butt;stroke-linejoin:miter;stroke-opacity:1" />
      <path
         inkscape:connector-curvature="0"
         id="path4787-4-8-9"
         d="m -44.162205,424.98017 h 2.9042"
         style="fill:none;stroke:#000000;stroke-width:0.75131482px;stroke-linecap:butt;stroke-linejoin:miter;stroke-opacity:1" />
      <path
         inkscape:connector-curvature="0"
         id="path4787-4-8-8-4"
         d="m -44.162205,426.94828 h 2.9042"
         style="fill:none;stroke:#000000;stroke-width:0.75131482px;stroke-linecap:butt;stroke-linejoin:miter;stroke-opacity:1" />
      <g
         style="stroke-width:0.37565741;filter:url(#filter7058)"
         transform="matrix(1.8,0,0,1.8,1820.806,-1452.2727)"
         id="g3011">
        <path
           inkscape:connector-curvature="0"
           style="color:#000000;display:inline;overflow:visible;visibility:visible;fill:#696969;fill-opacity:1;fill-rule:nonzero;stroke:none;stroke-width:0.37565741;marker:none;enable-background:accumulate"
           d="m 2.90625,1.4375 c 1.99e-4,0.00992 0,0.021284 0,0.03125 0,0.8052311 -0.6322689,1.4375 -1.4375,1.4375 -0.00997,0 -0.021332,1.99e-4 -0.03125,0 v 9.1875 c 0.00992,-1.99e-4 0.021284,0 0.03125,0 0.8052311,0 1.4375,0.632269 1.4375,1.4375 0,0.01 1.99e-4,0.02133 0,0.03125 h 9.1875 c -1.99e-4,-0.0099 0,-0.02128 0,-0.03125 0,-0.805231 0.632269,-1.4375 1.4375,-1.4375 0.01,0 0.02133,-1.99e-4 0.03125,0 v -9.1875 c -0.0099,1.99e-4 -0.02128,0 -0.03125,0 -0.805231,0 -1.4375,-0.6322689 -1.4375,-1.4375 0,-0.00997 -1.99e-4,-0.021332 0,-0.03125 z"
           transform="translate(-1036.3712,1037.0583)"
           id="rect4735" />
        <path
           inkscape:connector-curvature="0"
           style="color:#000000;display:inline;overflow:visible;visibility:visible;fill:#000000;fill-opacity:1;fill-rule:nonzero;stroke:none;stroke-width:0.37565741;marker:none;enable-background:accumulate"
           d="m -1033.0056,1039.1023 c 2e-4,0.01 0,0.019 0,0.028 0,0.7247 -0.569,1.2938 -1.2938,1.2938 -0.01,0 -0.019,0 -0.028,0 v 8.2687 c 0.01,-2e-4 0.019,0 0.028,0 0.7248,0 1.2938,0.569 1.2938,1.2938 0,0.01 2e-4,0.019 0,0.028 h 8.2687 c -10e-5,-0.01 0,-0.019 0,-0.028 0,-0.7248 0.5691,-1.2938 1.2938,-1.2938 0.01,0 0.019,-2e-4 0.028,0 v -8.2687 c -0.01,0 -0.019,0 -0.028,0 -0.7247,0 -1.2938,-0.5691 -1.2938,-1.2938 0,-0.01 -10e-5,-0.019 0,-0.028 z"
           id="rect4735-2" />
      </g>
    </g>
    <path
       style="fill:none;stroke:#000000;stroke-width:1px;stroke-linecap:butt;stroke-linejoin:miter;stroke-opacity:1"
       d="M -1.7759059,494.44551 H 2.0895843"
       id="path4787-49"
       inkscape:connector-curvature="0" />
    <path
       style="fill:none;stroke:#000000;stroke-width:1px;stroke-linecap:butt;stroke-linejoin:miter;stroke-opacity:1"
       d="M -1.7759059,497.06505 H 2.0895843"
       id="path4787-4-0"
       inkscape:connector-curvature="0" />
    <path
       style="fill:none;stroke:#000000;stroke-width:1px;stroke-linecap:butt;stroke-linejoin:miter;stroke-opacity:1"
       d="M -1.7759059,499.6846 H 2.0895843"
       id="path4787-4-8-5"
       inkscape:connector-curvature="0" />
    <path
       style="fill:none;stroke:#000000;stroke-width:1px;stroke-linecap:butt;stroke-linejoin:miter;stroke-opacity:1"
       d="M -1.7759059,502.30416 H 2.0895843"
       id="path4787-4-8-8-3"
       inkscape:connector-curvature="0" />
    <path
       style="fill:none;stroke:#000000;stroke-width:1px;stroke-linecap:butt;stroke-linejoin:miter;stroke-opacity:1"
       d="m 28.964604,494.44551 h 3.86549"
       id="path4787-45-82"
       inkscape:connector-curvature="0" />
    <path
       style="fill:none;stroke:#000000;stroke-width:1px;stroke-linecap:butt;stroke-linejoin:miter;stroke-opacity:1"
       d="m 28.964604,497.06505 h 3.86549"
       id="path4787-4-5-1"
       inkscape:connector-curvature="0" />
    <path
       style="fill:none;stroke:#000000;stroke-width:1px;stroke-linecap:butt;stroke-linejoin:miter;stroke-opacity:1"
       d="m 28.964604,499.6846 h 3.86549"
       id="path4787-4-8-1-8"
       inkscape:connector-curvature="0" />
    <path
       style="fill:none;stroke:#000000;stroke-width:1px;stroke-linecap:butt;stroke-linejoin:miter;stroke-opacity:1"
       d="m 28.964604,502.30416 h 3.86549"
       id="path4787-4-8-8-7-79"
       inkscape:connector-curvature="0" />
    <path
       style="fill:none;stroke:#000000;stroke-width:1px;stroke-linecap:butt;stroke-linejoin:miter;stroke-opacity:1"
       d="m 24.695606,475.8327 v 3.86549"
       id="path4787-1-0"
       inkscape:connector-curvature="0" />
    <path
       style="fill:none;stroke:#000000;stroke-width:1px;stroke-linecap:butt;stroke-linejoin:miter;stroke-opacity:1"
       d="m 22.076044,475.8327 v 3.86549"
       id="path4787-4-52-9"
       inkscape:connector-curvature="0" />
    <path
       style="fill:none;stroke:#000000;stroke-width:1px;stroke-linecap:butt;stroke-linejoin:miter;stroke-opacity:1"
       d="m 19.45648,475.8327 v 3.86549"
       id="path4787-4-8-7-7"
       inkscape:connector-curvature="0" />
    <path
       style="fill:none;stroke:#000000;stroke-width:1px;stroke-linecap:butt;stroke-linejoin:miter;stroke-opacity:1"
       d="m 16.836917,475.8327 v 3.86549"
       id="path4787-4-8-8-6-9"
       inkscape:connector-curvature="0" />
    <path
       style="fill:none;stroke:#000000;stroke-width:1px;stroke-linecap:butt;stroke-linejoin:miter;stroke-opacity:1"
       d="m 24.695606,506.57321 v 3.86549"
       id="path4787-1-4-23"
       inkscape:connector-curvature="0" />
    <path
       style="fill:none;stroke:#000000;stroke-width:1px;stroke-linecap:butt;stroke-linejoin:miter;stroke-opacity:1"
       d="m 22.076044,506.57321 v 3.86549"
       id="path4787-4-52-2-9"
       inkscape:connector-curvature="0" />
    <path
       style="fill:none;stroke:#000000;stroke-width:1px;stroke-linecap:butt;stroke-linejoin:miter;stroke-opacity:1"
       d="m 19.45648,506.57321 v 3.86549"
       id="path4787-4-8-7-3-2"
       inkscape:connector-curvature="0" />
    <path
       style="fill:none;stroke:#000000;stroke-width:1px;stroke-linecap:butt;stroke-linejoin:miter;stroke-opacity:1"
       d="m 16.836917,506.57321 v 3.86549"
       id="path4787-4-8-8-6-2-27"
       inkscape:connector-curvature="0" />
    <path
       style="fill:none;stroke:#000000;stroke-width:1px;stroke-linecap:butt;stroke-linejoin:miter;stroke-opacity:1"
       d="m 14.217353,475.8327 v 3.86549"
       id="path4787-1-44-4"
       inkscape:connector-curvature="0" />
    <path
       style="fill:none;stroke:#000000;stroke-width:1px;stroke-linecap:butt;stroke-linejoin:miter;stroke-opacity:1"
       d="m 11.597789,475.8327 v 3.86549"
       id="path4787-4-52-6-7"
       inkscape:connector-curvature="0" />
    <path
       style="fill:none;stroke:#000000;stroke-width:1px;stroke-linecap:butt;stroke-linejoin:miter;stroke-opacity:1"
       d="m 8.9782268,475.8327 v 3.86549"
       id="path4787-4-8-7-6-1"
       inkscape:connector-curvature="0" />
    <path
       style="fill:none;stroke:#000000;stroke-width:1px;stroke-linecap:butt;stroke-linejoin:miter;stroke-opacity:1"
       d="m 6.358663,475.8327 v 3.86549"
       id="path4787-4-8-8-6-0-7"
       inkscape:connector-curvature="0" />
    <path
       style="fill:none;stroke:#000000;stroke-width:1px;stroke-linecap:butt;stroke-linejoin:miter;stroke-opacity:1"
       d="m 28.964604,483.96729 h 3.86549"
       id="path4787-45-8-6"
       inkscape:connector-curvature="0" />
    <path
       style="fill:none;stroke:#000000;stroke-width:1px;stroke-linecap:butt;stroke-linejoin:miter;stroke-opacity:1"
       d="m 28.964604,486.58684 h 3.86549"
       id="path4787-4-5-6-9"
       inkscape:connector-curvature="0" />
    <path
       style="fill:none;stroke:#000000;stroke-width:1px;stroke-linecap:butt;stroke-linejoin:miter;stroke-opacity:1"
       d="m 28.964604,489.2064 h 3.86549"
       id="path4787-4-8-1-1-3"
       inkscape:connector-curvature="0" />
    <path
       style="fill:none;stroke:#000000;stroke-width:1px;stroke-linecap:butt;stroke-linejoin:miter;stroke-opacity:1"
       d="m 28.964604,491.82595 h 3.86549"
       id="path4787-4-8-8-7-7-8"
       inkscape:connector-curvature="0" />
    <path
       style="fill:none;stroke:#000000;stroke-width:1px;stroke-linecap:butt;stroke-linejoin:miter;stroke-opacity:1"
       d="m 14.217353,506.57321 v 3.86549"
       id="path4787-1-4-2-8"
       inkscape:connector-curvature="0" />
    <path
       style="fill:none;stroke:#000000;stroke-width:1px;stroke-linecap:butt;stroke-linejoin:miter;stroke-opacity:1"
       d="m 11.597789,506.57321 v 3.86549"
       id="path4787-4-52-2-2-5"
       inkscape:connector-curvature="0" />
    <path
       style="fill:none;stroke:#000000;stroke-width:1px;stroke-linecap:butt;stroke-linejoin:miter;stroke-opacity:1"
       d="m 8.9782268,506.57321 v 3.86549"
       id="path4787-4-8-7-3-5-1"
       inkscape:connector-curvature="0" />
    <path
       style="fill:none;stroke:#000000;stroke-width:1px;stroke-linecap:butt;stroke-linejoin:miter;stroke-opacity:1"
       d="m 6.358663,506.57321 v 3.86549"
       id="path4787-4-8-8-6-2-2-0"
       inkscape:connector-curvature="0" />
    <path
       style="fill:none;stroke:#000000;stroke-width:1px;stroke-linecap:butt;stroke-linejoin:miter;stroke-opacity:1"
       d="M -1.7759059,483.96729 H 2.0895843"
       id="path4787-2-4"
       inkscape:connector-curvature="0" />
    <path
       style="fill:none;stroke:#000000;stroke-width:1px;stroke-linecap:butt;stroke-linejoin:miter;stroke-opacity:1"
       d="M -1.7759059,486.58684 H 2.0895843"
       id="path4787-4-6-8"
       inkscape:connector-curvature="0" />
    <path
       style="fill:none;stroke:#000000;stroke-width:1px;stroke-linecap:butt;stroke-linejoin:miter;stroke-opacity:1"
       d="M -1.7759059,489.2064 H 2.0895843"
       id="path4787-4-8-9-3"
       inkscape:connector-curvature="0" />
    <path
       style="fill:none;stroke:#000000;stroke-width:1px;stroke-linecap:butt;stroke-linejoin:miter;stroke-opacity:1"
       d="M -1.7759059,491.82595 H 2.0895843"
       id="path4787-4-8-8-4-0"
       inkscape:connector-curvature="0" />
    <g
       id="g3011-6"
       transform="matrix(2.3958,0,0,2.3958,2480.4968,-2009.4172)"
       style="stroke-width:0.37565741;filter:url(#filter7129)">
      <path
         id="rect4735-0"
         transform="translate(-1036.3712,1037.0583)"
         d="m 2.90625,1.4375 c 1.99e-4,0.00992 0,0.021284 0,0.03125 0,0.8052311 -0.6322689,1.4375 -1.4375,1.4375 -0.00997,0 -0.021332,1.99e-4 -0.03125,0 v 9.1875 c 0.00992,-1.99e-4 0.021284,0 0.03125,0 0.8052311,0 1.4375,0.632269 1.4375,1.4375 0,0.01 1.99e-4,0.02133 0,0.03125 h 9.1875 c -1.99e-4,-0.0099 0,-0.02128 0,-0.03125 0,-0.805231 0.632269,-1.4375 1.4375,-1.4375 0.01,0 0.02133,-1.99e-4 0.03125,0 v -9.1875 c -0.0099,1.99e-4 -0.02128,0 -0.03125,0 -0.805231,0 -1.4375,-0.6322689 -1.4375,-1.4375 0,-0.00997 -1.99e-4,-0.021332 0,-0.03125 z"
         style="color:#000000;display:inline;overflow:visible;visibility:visible;fill:#696969;fill-opacity:1;fill-rule:nonzero;stroke:none;stroke-width:0.37565741;marker:none;enable-background:accumulate"
         inkscape:connector-curvature="0" />
      <path
         id="rect4735-2-7"
         d="m -1033.0056,1039.1023 c 2e-4,0.01 0,0.019 0,0.028 0,0.7247 -0.569,1.2938 -1.2938,1.2938 -0.01,0 -0.019,0 -0.028,0 v 8.2687 c 0.01,-2e-4 0.019,0 0.028,0 0.7248,0 1.2938,0.569 1.2938,1.2938 0,0.01 2e-4,0.019 0,0.028 h 8.2687 c -10e-5,-0.01 0,-0.019 0,-0.028 0,-0.7248 0.5691,-1.2938 1.2938,-1.2938 0.01,0 0.019,-2e-4 0.028,0 v -8.2687 c -0.01,0 -0.019,0 -0.028,0 -0.7247,0 -1.2938,-0.5691 -1.2938,-1.2938 0,-0.01 -10e-5,-0.019 0,-0.028 z"
         style="color:#000000;display:inline;overflow:visible;visibility:visible;fill:#000000;fill-opacity:1;fill-rule:nonzero;stroke:none;stroke-width:0.37565741;marker:none;enable-background:accumulate"
         inkscape:connector-curvature="0" />
    </g>
    <g
       id="g5234-3-6"
       transform="matrix(1.331,0,0,1.331,57.003989,0.62218047)"
       style="stroke-width:0.75131482">
      <path
         inkscape:connector-curvature="0"
         id="path4787-49-4"
         d="m -44.162205,428.91639 h 2.9042"
         style="fill:none;stroke:#000000;stroke-width:0.75131482px;stroke-linecap:butt;stroke-linejoin:miter;stroke-opacity:1" />
      <path
         inkscape:connector-curvature="0"
         id="path4787-4-0-3"
         d="m -44.162205,430.88449 h 2.9042"
         style="fill:none;stroke:#000000;stroke-width:0.75131482px;stroke-linecap:butt;stroke-linejoin:miter;stroke-opacity:1" />
      <path
         inkscape:connector-curvature="0"
         id="path4787-4-8-5-4"
         d="m -44.162205,432.8526 h 2.9042"
         style="fill:none;stroke:#000000;stroke-width:0.75131482px;stroke-linecap:butt;stroke-linejoin:miter;stroke-opacity:1" />
      <path
         inkscape:connector-curvature="0"
         id="path4787-4-8-8-3-9"
         d="m -44.162205,434.82071 h 2.9042"
         style="fill:none;stroke:#000000;stroke-width:0.75131482px;stroke-linecap:butt;stroke-linejoin:miter;stroke-opacity:1" />
      <path
         inkscape:connector-curvature="0"
         id="path4787-45-82-4"
         d="m -21.066405,428.91639 h 2.9042"
         style="fill:none;stroke:#000000;stroke-width:0.75131482px;stroke-linecap:butt;stroke-linejoin:miter;stroke-opacity:1" />
      <path
         inkscape:connector-curvature="0"
         id="path4787-4-5-1-3"
         d="m -21.066405,430.88449 h 2.9042"
         style="fill:none;stroke:#000000;stroke-width:0.75131482px;stroke-linecap:butt;stroke-linejoin:miter;stroke-opacity:1" />
      <path
         inkscape:connector-curvature="0"
         id="path4787-4-8-1-8-8"
         d="m -21.066405,432.8526 h 2.9042"
         style="fill:none;stroke:#000000;stroke-width:0.75131482px;stroke-linecap:butt;stroke-linejoin:miter;stroke-opacity:1" />
      <path
         inkscape:connector-curvature="0"
         id="path4787-4-8-8-7-79-3"
         d="m -21.066405,434.82071 h 2.9042"
         style="fill:none;stroke:#000000;stroke-width:0.75131482px;stroke-linecap:butt;stroke-linejoin:miter;stroke-opacity:1" />
      <path
         inkscape:connector-curvature="0"
         id="path4787-1-0-1"
         d="m -24.273766,414.93231 v 2.9042"
         style="fill:none;stroke:#000000;stroke-width:0.75131482px;stroke-linecap:butt;stroke-linejoin:miter;stroke-opacity:1" />
      <path
         inkscape:connector-curvature="0"
         id="path4787-4-52-9-1"
         d="m -26.241882,414.93231 v 2.9042"
         style="fill:none;stroke:#000000;stroke-width:0.75131482px;stroke-linecap:butt;stroke-linejoin:miter;stroke-opacity:1" />
      <path
         inkscape:connector-curvature="0"
         id="path4787-4-8-7-7-6"
         d="m -28.209999,414.93231 v 2.9042"
         style="fill:none;stroke:#000000;stroke-width:0.75131482px;stroke-linecap:butt;stroke-linejoin:miter;stroke-opacity:1" />
      <path
         inkscape:connector-curvature="0"
         id="path4787-4-8-8-6-9-5"
         d="m -30.178116,414.93231 v 2.9042"
         style="fill:none;stroke:#000000;stroke-width:0.75131482px;stroke-linecap:butt;stroke-linejoin:miter;stroke-opacity:1" />
      <path
         inkscape:connector-curvature="0"
         id="path4787-1-4-23-5"
         d="m -24.273766,438.02811 v 2.9042"
         style="fill:none;stroke:#000000;stroke-width:0.75131482px;stroke-linecap:butt;stroke-linejoin:miter;stroke-opacity:1" />
      <path
         inkscape:connector-curvature="0"
         id="path4787-4-52-2-9-6"
         d="m -26.241882,438.02811 v 2.9042"
         style="fill:none;stroke:#000000;stroke-width:0.75131482px;stroke-linecap:butt;stroke-linejoin:miter;stroke-opacity:1" />
      <path
         inkscape:connector-curvature="0"
         id="path4787-4-8-7-3-2-9"
         d="m -28.209999,438.02811 v 2.9042"
         style="fill:none;stroke:#000000;stroke-width:0.75131482px;stroke-linecap:butt;stroke-linejoin:miter;stroke-opacity:1" />
      <path
         inkscape:connector-curvature="0"
         id="path4787-4-8-8-6-2-27-2"
         d="m -30.178116,438.02811 v 2.9042"
         style="fill:none;stroke:#000000;stroke-width:0.75131482px;stroke-linecap:butt;stroke-linejoin:miter;stroke-opacity:1" />
      <path
         inkscape:connector-curvature="0"
         id="path4787-1-44-4-7"
         d="m -32.146233,414.93231 v 2.9042"
         style="fill:none;stroke:#000000;stroke-width:0.75131482px;stroke-linecap:butt;stroke-linejoin:miter;stroke-opacity:1" />
      <path
         inkscape:connector-curvature="0"
         id="path4787-4-52-6-7-3"
         d="m -34.11435,414.93231 v 2.9042"
         style="fill:none;stroke:#000000;stroke-width:0.75131482px;stroke-linecap:butt;stroke-linejoin:miter;stroke-opacity:1" />
      <path
         inkscape:connector-curvature="0"
         id="path4787-4-8-7-6-1-0"
         d="m -36.082466,414.93231 v 2.9042"
         style="fill:none;stroke:#000000;stroke-width:0.75131482px;stroke-linecap:butt;stroke-linejoin:miter;stroke-opacity:1" />
      <path
         inkscape:connector-curvature="0"
         id="path4787-4-8-8-6-0-7-3"
         d="m -38.050583,414.93231 v 2.9042"
         style="fill:none;stroke:#000000;stroke-width:0.75131482px;stroke-linecap:butt;stroke-linejoin:miter;stroke-opacity:1" />
      <path
         inkscape:connector-curvature="0"
         id="path4787-45-8-6-8"
         d="m -21.066405,421.04395 h 2.9042"
         style="fill:none;stroke:#000000;stroke-width:0.75131482px;stroke-linecap:butt;stroke-linejoin:miter;stroke-opacity:1" />
      <path
         inkscape:connector-curvature="0"
         id="path4787-4-5-6-9-1"
         d="m -21.066405,423.01206 h 2.9042"
         style="fill:none;stroke:#000000;stroke-width:0.75131482px;stroke-linecap:butt;stroke-linejoin:miter;stroke-opacity:1" />
      <path
         inkscape:connector-curvature="0"
         id="path4787-4-8-1-1-3-3"
         d="m -21.066405,424.98017 h 2.9042"
         style="fill:none;stroke:#000000;stroke-width:0.75131482px;stroke-linecap:butt;stroke-linejoin:miter;stroke-opacity:1" />
      <path
         inkscape:connector-curvature="0"
         id="path4787-4-8-8-7-7-8-6"
         d="m -21.066405,426.94828 h 2.9042"
         style="fill:none;stroke:#000000;stroke-width:0.75131482px;stroke-linecap:butt;stroke-linejoin:miter;stroke-opacity:1" />
      <path
         inkscape:connector-curvature="0"
         id="path4787-1-4-2-8-8"
         d="m -32.146233,438.02811 v 2.9042"
         style="fill:none;stroke:#000000;stroke-width:0.75131482px;stroke-linecap:butt;stroke-linejoin:miter;stroke-opacity:1" />
      <path
         inkscape:connector-curvature="0"
         id="path4787-4-52-2-2-5-0"
         d="m -34.11435,438.02811 v 2.9042"
         style="fill:none;stroke:#000000;stroke-width:0.75131482px;stroke-linecap:butt;stroke-linejoin:miter;stroke-opacity:1" />
      <path
         inkscape:connector-curvature="0"
         id="path4787-4-8-7-3-5-1-9"
         d="m -36.082466,438.02811 v 2.9042"
         style="fill:none;stroke:#000000;stroke-width:0.75131482px;stroke-linecap:butt;stroke-linejoin:miter;stroke-opacity:1" />
      <path
         inkscape:connector-curvature="0"
         id="path4787-4-8-8-6-2-2-0-1"
         d="m -38.050583,438.02811 v 2.9042"
         style="fill:none;stroke:#000000;stroke-width:0.75131482px;stroke-linecap:butt;stroke-linejoin:miter;stroke-opacity:1" />
      <path
         inkscape:connector-curvature="0"
         id="path4787-2-4-0"
         d="m -44.162205,421.04395 h 2.9042"
         style="fill:none;stroke:#000000;stroke-width:0.75131482px;stroke-linecap:butt;stroke-linejoin:miter;stroke-opacity:1" />
      <path
         inkscape:connector-curvature="0"
         id="path4787-4-6-8-1"
         d="m -44.162205,423.01206 h 2.9042"
         style="fill:none;stroke:#000000;stroke-width:0.75131482px;stroke-linecap:butt;stroke-linejoin:miter;stroke-opacity:1" />
      <path
         inkscape:connector-curvature="0"
         id="path4787-4-8-9-3-9"
         d="m -44.162205,424.98017 h 2.9042"
         style="fill:none;stroke:#000000;stroke-width:0.75131482px;stroke-linecap:butt;stroke-linejoin:miter;stroke-opacity:1" />
      <path
         inkscape:connector-curvature="0"
         id="path4787-4-8-8-4-0-5"
         d="m -44.162205,426.94828 h 2.9042"
         style="fill:none;stroke:#000000;stroke-width:0.75131482px;stroke-linecap:butt;stroke-linejoin:miter;stroke-opacity:1" />
      <g
         style="stroke-width:0.37565741;filter:url(#filter7141)"
         transform="matrix(1.8,0,0,1.8,1820.806,-1452.2727)"
         id="g3011-6-1">
        <path
           inkscape:connector-curvature="0"
           style="color:#000000;display:inline;overflow:visible;visibility:visible;fill:#696969;fill-opacity:1;fill-rule:nonzero;stroke:none;stroke-width:0.37565741;marker:none;enable-background:accumulate"
           d="m 2.90625,1.4375 c 1.99e-4,0.00992 0,0.021284 0,0.03125 0,0.8052311 -0.6322689,1.4375 -1.4375,1.4375 -0.00997,0 -0.021332,1.99e-4 -0.03125,0 v 9.1875 c 0.00992,-1.99e-4 0.021284,0 0.03125,0 0.8052311,0 1.4375,0.632269 1.4375,1.4375 0,0.01 1.99e-4,0.02133 0,0.03125 h 9.1875 c -1.99e-4,-0.0099 0,-0.02128 0,-0.03125 0,-0.805231 0.632269,-1.4375 1.4375,-1.4375 0.01,0 0.02133,-1.99e-4 0.03125,0 v -9.1875 c -0.0099,1.99e-4 -0.02128,0 -0.03125,0 -0.805231,0 -1.4375,-0.6322689 -1.4375,-1.4375 0,-0.00997 -1.99e-4,-0.021332 0,-0.03125 z"
           transform="translate(-1036.3712,1037.0583)"
           id="rect4735-0-8" />
        <path
           inkscape:connector-curvature="0"
           style="color:#000000;display:inline;overflow:visible;visibility:visible;fill:#000000;fill-opacity:1;fill-rule:nonzero;stroke:none;stroke-width:0.37565741;marker:none;enable-background:accumulate"
           d="m -1033.0056,1039.1023 c 2e-4,0.01 0,0.019 0,0.028 0,0.7247 -0.569,1.2938 -1.2938,1.2938 -0.01,0 -0.019,0 -0.028,0 v 8.2687 c 0.01,-2e-4 0.019,0 0.028,0 0.7248,0 1.2938,0.569 1.2938,1.2938 0,0.01 2e-4,0.019 0,0.028 h 8.2687 c -10e-5,-0.01 0,-0.019 0,-0.028 0,-0.7248 0.5691,-1.2938 1.2938,-1.2938 0.01,0 0.019,-2e-4 0.028,0 v -8.2687 c -0.01,0 -0.019,0 -0.028,0 -0.7247,0 -1.2938,-0.5691 -1.2938,-1.2938 0,-0.01 -10e-5,-0.019 0,-0.028 z"
           id="rect4735-2-7-5" />
      </g>
    </g>
    <flowRoot
       xml:space="preserve"
       id="flowRoot6328"
       style="font-style:normal;font-variant:normal;font-weight:normal;font-stretch:normal;font-size:13.33333302px;line-height:125%;font-family:'Linux Biolinum';-inkscape-font-specification:'Linux Biolinum';letter-spacing:0px;word-spacing:0px;fill:#000000;fill-opacity:1;stroke:none;stroke-width:1px;stroke-linecap:butt;stroke-linejoin:miter;stroke-opacity:1"
       transform="translate(124.20153,397.53857)"><flowRegion
         id="flowRegion6330"><rect
           id="rect6332"
           width="62.142857"
           height="43.214287"
           x="-83.571426"
           y="6.0714288" /></flowRegion><flowPara
         id="flowPara6334"
         style="font-style:normal;font-variant:normal;font-weight:normal;font-stretch:normal;font-family:Carlito;-inkscape-font-specification:Carlito">r<flowSpan
   style="font-style:normal;font-variant:normal;font-weight:normal;font-stretch:normal;font-size:64.99999762%;font-family:Carlito;-inkscape-font-specification:Carlito;baseline-shift:sub"
   id="flowSpan6336">0</flowSpan></flowPara></flowRoot>    <flowRoot
       xml:space="preserve"
       id="flowRoot6328-4"
       style="font-style:normal;font-variant:normal;font-weight:normal;font-stretch:normal;font-size:13.33333302px;line-height:125%;font-family:'Linux Biolinum';-inkscape-font-specification:'Linux Biolinum';letter-spacing:0px;word-spacing:0px;fill:#000000;fill-opacity:1;stroke:none;stroke-width:1px;stroke-linecap:butt;stroke-linejoin:miter;stroke-opacity:1"
       transform="translate(276.20153,397.53857)"><flowRegion
         id="flowRegion6330-1"><rect
           id="rect6332-9"
           width="62.142857"
           height="43.214287"
           x="-83.571426"
           y="6.0714288" /></flowRegion><flowPara
         id="flowPara6334-1"
         style="font-style:normal;font-variant:normal;font-weight:normal;font-stretch:normal;font-family:Carlito;-inkscape-font-specification:Carlito">r<flowSpan
   style="font-style:normal;font-variant:normal;font-weight:normal;font-stretch:normal;font-size:64.99999762%;font-family:Carlito;-inkscape-font-specification:Carlito;baseline-shift:sub"
   id="flowSpan6336-8">0</flowSpan></flowPara></flowRoot>    <flowRoot
       xml:space="preserve"
       id="flowRoot6328-8"
       style="font-style:normal;font-variant:normal;font-weight:normal;font-stretch:normal;font-size:13.33333302px;line-height:125%;font-family:'Linux Biolinum';-inkscape-font-specification:'Linux Biolinum';letter-spacing:0px;word-spacing:0px;fill:#000000;fill-opacity:1;stroke:none;stroke-width:1px;stroke-linecap:butt;stroke-linejoin:miter;stroke-opacity:1"
       transform="translate(124.91035,477.53857)"><flowRegion
         id="flowRegion6330-5"><rect
           id="rect6332-6"
           width="62.142857"
           height="43.214287"
           x="-83.571426"
           y="6.0714288" /></flowRegion><flowPara
         id="flowPara6334-2"
         style="font-style:normal;font-variant:normal;font-weight:normal;font-stretch:normal;font-family:Carlito;-inkscape-font-specification:Carlito">r<flowSpan
   style="font-style:normal;font-variant:normal;font-weight:normal;font-stretch:normal;font-size:64.99999762%;font-family:Carlito;-inkscape-font-specification:Carlito;baseline-shift:sub"
   id="flowSpan6439">t</flowSpan></flowPara></flowRoot>    <flowRoot
       xml:space="preserve"
       id="flowRoot6392"
       style="font-style:normal;font-variant:normal;font-weight:normal;font-stretch:normal;font-size:13.33333302px;line-height:125%;font-family:'Linux Biolinum';-inkscape-font-specification:'Linux Biolinum';letter-spacing:0px;word-spacing:0px;fill:#000000;fill-opacity:1;stroke:none;stroke-width:1px;stroke-linecap:butt;stroke-linejoin:miter;stroke-opacity:1"
       transform="translate(16.489893,396.09712)"><flowRegion
         id="flowRegion6394"><rect
           id="rect6396"
           width="93.186569"
           height="16.667517"
           x="76.519058"
           y="9.0811691" /></flowRegion><flowPara
         id="flowPara6398"
         style="font-style:normal;font-variant:normal;font-weight:normal;font-stretch:normal;font-family:Carlito;-inkscape-font-specification:Carlito">Enrolment</flowPara></flowRoot>    <flowRoot
       xml:space="preserve"
       id="flowRoot6328-8-0"
       style="font-style:normal;font-variant:normal;font-weight:normal;font-stretch:normal;font-size:13.33333302px;line-height:125%;font-family:'Linux Biolinum';-inkscape-font-specification:'Linux Biolinum';letter-spacing:0px;word-spacing:0px;fill:#000000;fill-opacity:1;stroke:none;stroke-width:1px;stroke-linecap:butt;stroke-linejoin:miter;stroke-opacity:1"
       transform="translate(276.20153,463.81258)"><flowRegion
         id="flowRegion6330-5-1"><rect
           id="rect6332-6-4"
           width="62.142857"
           height="43.214287"
           x="-83.571426"
           y="6.0714288" /></flowRegion><flowPara
         id="flowPara6334-2-1"
         style="font-style:normal;font-variant:normal;font-weight:normal;font-stretch:normal;font-family:Carlito;-inkscape-font-specification:Carlito">r<flowSpan
   style="font-style:normal;font-variant:normal;font-weight:normal;font-stretch:normal;font-size:64.99999762%;font-family:Carlito;-inkscape-font-specification:Carlito;baseline-shift:sub"
   id="flowSpan6336-0-9">0</flowSpan></flowPara></flowRoot>    <flowRoot
       xml:space="preserve"
       id="flowRoot6328-8-0-8"
       style="font-style:normal;font-variant:normal;font-weight:normal;font-stretch:normal;font-size:13.33333302px;line-height:125%;font-family:'Linux Biolinum';-inkscape-font-specification:'Linux Biolinum';letter-spacing:0px;word-spacing:0px;fill:#000000;fill-opacity:1;stroke:none;stroke-width:1px;stroke-linecap:butt;stroke-linejoin:miter;stroke-opacity:1"
       transform="translate(276.91035,493.81257)"><flowRegion
         id="flowRegion6330-5-1-9"><rect
           id="rect6332-6-4-3"
           width="62.142857"
           height="43.214287"
           x="-83.571426"
           y="6.0714288" /></flowRegion><flowPara
         id="flowPara6334-2-1-2"
         style="font-style:normal;font-variant:normal;font-weight:normal;font-stretch:normal;font-family:Carlito;-inkscape-font-specification:Carlito">r<flowSpan
   style="font-style:normal;font-variant:normal;font-weight:normal;font-stretch:normal;font-size:64.99999762%;font-family:Carlito;-inkscape-font-specification:Carlito;baseline-shift:sub"
   id="flowSpan6470">t</flowSpan></flowPara></flowRoot>    <flowRoot
       xml:space="preserve"
       id="flowRoot6392-4-3"
       style="font-style:normal;font-variant:normal;font-weight:normal;font-stretch:normal;font-size:13.33333302px;line-height:125%;font-family:'Linux Biolinum';-inkscape-font-specification:'Linux Biolinum';letter-spacing:0px;word-spacing:0px;fill:#000000;fill-opacity:1;stroke:none;stroke-width:1px;stroke-linecap:butt;stroke-linejoin:miter;stroke-opacity:1"
       transform="translate(1.8902844,468.09712)"><flowRegion
         id="flowRegion6394-0-0"><rect
           id="rect6396-9-7"
           width="93.186569"
           height="16.667517"
           x="76.519058"
           y="9.0811691" /></flowRegion><flowPara
         id="flowPara6398-2-8"
         style="font-style:normal;font-variant:normal;font-weight:normal;font-stretch:normal;font-family:Carlito;-inkscape-font-specification:Carlito">Error-correction</flowPara></flowRoot>    <g
       id="g9712"
       transform="matrix(0.19873629,0,0,0.219113,155.42862,714.13053)"
       style="stroke-width:4.79211617">
      <path
         sodipodi:nodetypes="csccscc"
         inkscape:connector-curvature="0"
         d="m 440.40917,-1255.1953 c 0,10.3542 -34.43348,18.748 -76.90934,18.748 -42.47585,0 -76.90933,-8.3938 -76.90933,-18.748 v -46.4439 c 0,-10.3542 34.43348,-18.7479 76.90933,-18.7479 42.47586,0 76.90934,8.3937 76.90934,18.7479 z"
         style="color:#000000;display:inline;overflow:visible;visibility:visible;fill:#073642;fill-opacity:1;fill-rule:nonzero;stroke:#000000;stroke-width:4.79211617;stroke-miterlimit:4;stroke-dasharray:none;stroke-opacity:1;marker:none;enable-background:accumulate"
         id="path9606-4-7" />
      <ellipse
         id="path9606-9-8"
         style="color:#000000;display:inline;overflow:visible;visibility:visible;fill:#586e75;fill-opacity:1;fill-rule:nonzero;stroke:#000000;stroke-width:4.79211617;stroke-miterlimit:4;stroke-dasharray:none;stroke-opacity:1;marker:none;enable-background:accumulate"
         cx="363.49982"
         cy="-1301.6392"
         rx="76.909332"
         ry="18.747982" />
      <path
         sodipodi:nodetypes="csccscc"
         inkscape:connector-curvature="0"
         d="m 440.40917,-1315.8138 c 0,10.3542 -34.43348,18.748 -76.90933,18.748 -42.47586,0 -76.90934,-8.3938 -76.90934,-18.748 v -46.4439 c 0,-10.3542 34.43348,-18.748 76.90934,-18.748 42.47585,0 76.90933,8.3938 76.90933,18.748 z"
         style="color:#000000;display:inline;overflow:visible;visibility:visible;fill:#073642;fill-opacity:1;fill-rule:nonzero;stroke:#000000;stroke-width:4.79211617;stroke-miterlimit:4;stroke-dasharray:none;stroke-opacity:1;marker:none;enable-background:accumulate"
         id="path9606-4-1" />
      <ellipse
         id="path9606-9-5"
         style="color:#000000;display:inline;overflow:visible;visibility:visible;fill:#586e75;fill-opacity:1;fill-rule:nonzero;stroke:#000000;stroke-width:4.79211617;stroke-miterlimit:4;stroke-dasharray:none;stroke-opacity:1;marker:none;enable-background:accumulate"
         cx="363.49985"
         cy="-1362.2577"
         rx="76.909332"
         ry="18.747982" />
      <path
         sodipodi:nodetypes="csccscc"
         inkscape:connector-curvature="0"
         d="m 440.40917,-1376.4322 c 0,10.3542 -34.43348,18.7479 -76.90933,18.7479 -42.47586,0 -76.90934,-8.3937 -76.90934,-18.7479 v -46.4439 c 0,-10.3542 34.43348,-18.748 76.90934,-18.748 42.47585,0 76.90933,8.3938 76.90933,18.748 z"
         style="color:#000000;display:inline;overflow:visible;visibility:visible;fill:#073642;fill-opacity:1;fill-rule:nonzero;stroke:#000000;stroke-width:4.79211617;stroke-miterlimit:4;stroke-dasharray:none;stroke-opacity:1;marker:none;enable-background:accumulate"
         id="path9606-4" />
      <ellipse
         id="path9606-9"
         style="color:#000000;display:inline;overflow:visible;visibility:visible;fill:#586e75;fill-opacity:1;fill-rule:nonzero;stroke:#000000;stroke-width:4.79211617;stroke-miterlimit:4;stroke-dasharray:none;stroke-opacity:1;marker:none;enable-background:accumulate"
         cx="363.49985"
         cy="-1422.8761"
         rx="76.909332"
         ry="18.747982" />
    </g>
    <g
       id="g9712-9"
       transform="matrix(0.19873629,0,0,0.219113,155.42862,786.53583)"
       style="stroke-width:4.79211617">
      <path
         sodipodi:nodetypes="csccscc"
         inkscape:connector-curvature="0"
         d="m 440.40917,-1255.1953 c 0,10.3542 -34.43348,18.748 -76.90934,18.748 -42.47585,0 -76.90933,-8.3938 -76.90933,-18.748 v -46.4439 c 0,-10.3542 34.43348,-18.7479 76.90933,-18.7479 42.47586,0 76.90934,8.3937 76.90934,18.7479 z"
         style="color:#000000;display:inline;overflow:visible;visibility:visible;fill:#073642;fill-opacity:1;fill-rule:nonzero;stroke:#000000;stroke-width:4.79211617;stroke-miterlimit:4;stroke-dasharray:none;stroke-opacity:1;marker:none;enable-background:accumulate"
         id="path9606-4-7-9" />
      <ellipse
         id="path9606-9-8-7"
         style="color:#000000;display:inline;overflow:visible;visibility:visible;fill:#586e75;fill-opacity:1;fill-rule:nonzero;stroke:#000000;stroke-width:4.79211617;stroke-miterlimit:4;stroke-dasharray:none;stroke-opacity:1;marker:none;enable-background:accumulate"
         cx="363.49982"
         cy="-1301.6392"
         rx="76.909332"
         ry="18.747982" />
      <path
         sodipodi:nodetypes="csccscc"
         inkscape:connector-curvature="0"
         d="m 440.40917,-1315.8138 c 0,10.3542 -34.43348,18.748 -76.90933,18.748 -42.47586,0 -76.90934,-8.3938 -76.90934,-18.748 v -46.4439 c 0,-10.3542 34.43348,-18.748 76.90934,-18.748 42.47585,0 76.90933,8.3938 76.90933,18.748 z"
         style="color:#000000;display:inline;overflow:visible;visibility:visible;fill:#073642;fill-opacity:1;fill-rule:nonzero;stroke:#000000;stroke-width:4.79211617;stroke-miterlimit:4;stroke-dasharray:none;stroke-opacity:1;marker:none;enable-background:accumulate"
         id="path9606-4-1-1" />
      <ellipse
         id="path9606-9-5-4"
         style="color:#000000;display:inline;overflow:visible;visibility:visible;fill:#586e75;fill-opacity:1;fill-rule:nonzero;stroke:#000000;stroke-width:4.79211617;stroke-miterlimit:4;stroke-dasharray:none;stroke-opacity:1;marker:none;enable-background:accumulate"
         cx="363.49985"
         cy="-1362.2577"
         rx="76.909332"
         ry="18.747982" />
      <path
         sodipodi:nodetypes="csccscc"
         inkscape:connector-curvature="0"
         d="m 440.40917,-1376.4322 c 0,10.3542 -34.43348,18.7479 -76.90933,18.7479 -42.47586,0 -76.90934,-8.3937 -76.90934,-18.7479 v -46.4439 c 0,-10.3542 34.43348,-18.748 76.90934,-18.748 42.47585,0 76.90933,8.3938 76.90933,18.748 z"
         style="color:#000000;display:inline;overflow:visible;visibility:visible;fill:#073642;fill-opacity:1;fill-rule:nonzero;stroke:#000000;stroke-width:4.79211617;stroke-miterlimit:4;stroke-dasharray:none;stroke-opacity:1;marker:none;enable-background:accumulate"
         id="path9606-4-4" />
      <ellipse
         id="path9606-9-4"
         style="color:#000000;display:inline;overflow:visible;visibility:visible;fill:#586e75;fill-opacity:1;fill-rule:nonzero;stroke:#000000;stroke-width:4.79211617;stroke-miterlimit:4;stroke-dasharray:none;stroke-opacity:1;marker:none;enable-background:accumulate"
         cx="363.49985"
         cy="-1422.8761"
         rx="76.909332"
         ry="18.747982" />
    </g>
    <g
       id="g9712-9-9"
       transform="matrix(0.19873629,0,0,0.219113,155.42862,862.068)"
       style="stroke-width:4.79211617">
      <path
         sodipodi:nodetypes="csccscc"
         inkscape:connector-curvature="0"
         d="m 440.40917,-1255.1953 c 0,10.3542 -34.43348,18.748 -76.90934,18.748 -42.47585,0 -76.90933,-8.3938 -76.90933,-18.748 v -46.4439 c 0,-10.3542 34.43348,-18.7479 76.90933,-18.7479 42.47586,0 76.90934,8.3937 76.90934,18.7479 z"
         style="color:#000000;display:inline;overflow:visible;visibility:visible;fill:#073642;fill-opacity:1;fill-rule:nonzero;stroke:#000000;stroke-width:4.79211617;stroke-miterlimit:4;stroke-dasharray:none;stroke-opacity:1;marker:none;enable-background:accumulate"
         id="path9606-4-7-9-5" />
      <ellipse
         id="path9606-9-8-7-5"
         style="color:#000000;display:inline;overflow:visible;visibility:visible;fill:#586e75;fill-opacity:1;fill-rule:nonzero;stroke:#000000;stroke-width:4.79211617;stroke-miterlimit:4;stroke-dasharray:none;stroke-opacity:1;marker:none;enable-background:accumulate"
         cx="363.49982"
         cy="-1301.6392"
         rx="76.909332"
         ry="18.747982" />
      <path
         sodipodi:nodetypes="csccscc"
         inkscape:connector-curvature="0"
         d="m 440.40917,-1315.8138 c 0,10.3542 -34.43348,18.748 -76.90933,18.748 -42.47586,0 -76.90934,-8.3938 -76.90934,-18.748 v -46.4439 c 0,-10.3542 34.43348,-18.748 76.90934,-18.748 42.47585,0 76.90933,8.3938 76.90933,18.748 z"
         style="color:#000000;display:inline;overflow:visible;visibility:visible;fill:#073642;fill-opacity:1;fill-rule:nonzero;stroke:#000000;stroke-width:4.79211617;stroke-miterlimit:4;stroke-dasharray:none;stroke-opacity:1;marker:none;enable-background:accumulate"
         id="path9606-4-1-1-2" />
      <ellipse
         id="path9606-9-5-4-0"
         style="color:#000000;display:inline;overflow:visible;visibility:visible;fill:#586e75;fill-opacity:1;fill-rule:nonzero;stroke:#000000;stroke-width:4.79211617;stroke-miterlimit:4;stroke-dasharray:none;stroke-opacity:1;marker:none;enable-background:accumulate"
         cx="363.49985"
         cy="-1362.2577"
         rx="76.909332"
         ry="18.747982" />
      <path
         sodipodi:nodetypes="csccscc"
         inkscape:connector-curvature="0"
         d="m 440.40917,-1376.4322 c 0,10.3542 -34.43348,18.7479 -76.90933,18.7479 -42.47586,0 -76.90934,-8.3937 -76.90934,-18.7479 v -46.4439 c 0,-10.3542 34.43348,-18.748 76.90934,-18.748 42.47585,0 76.90933,8.3938 76.90933,18.748 z"
         style="color:#000000;display:inline;overflow:visible;visibility:visible;fill:#073642;fill-opacity:1;fill-rule:nonzero;stroke:#000000;stroke-width:4.79211617;stroke-miterlimit:4;stroke-dasharray:none;stroke-opacity:1;marker:none;enable-background:accumulate"
         id="path9606-4-4-8" />
      <ellipse
         id="path9606-9-4-8"
         style="color:#000000;display:inline;overflow:visible;visibility:visible;fill:#586e75;fill-opacity:1;fill-rule:nonzero;stroke:#000000;stroke-width:4.79211617;stroke-miterlimit:4;stroke-dasharray:none;stroke-opacity:1;marker:none;enable-background:accumulate"
         cx="363.49985"
         cy="-1422.8761"
         rx="76.909332"
         ry="18.747982" />
    </g>
    <flowRoot
       xml:space="preserve"
       id="flowRoot6392-4-3-9"
       style="font-style:normal;font-variant:normal;font-weight:normal;font-stretch:normal;font-size:13.33333302px;line-height:125%;font-family:'Linux Biolinum';-inkscape-font-specification:'Linux Biolinum';letter-spacing:0px;word-spacing:0px;opacity:1;vector-effect:none;fill:#000000;fill-opacity:1;stroke:none;stroke-width:1px;stroke-linecap:butt;stroke-linejoin:miter;stroke-miterlimit:4;stroke-dasharray:none;stroke-dashoffset:0;stroke-opacity:1"
       transform="translate(8.4853339,550.20467)"><flowRegion
         id="flowRegion6394-0-0-1"
         style="vector-effect:none;fill:#000000;fill-opacity:1;stroke:none;stroke-width:1px;stroke-linecap:butt;stroke-linejoin:miter;stroke-miterlimit:4;stroke-dasharray:none;stroke-dashoffset:0;stroke-opacity:1"><rect
           id="rect6396-9-7-3"
           width="93.186569"
           height="16.667517"
           x="76.519058"
           y="9.0811691"
           style="vector-effect:none;fill:#000000;fill-opacity:1;stroke:none;stroke-width:1px;stroke-linecap:butt;stroke-linejoin:miter;stroke-miterlimit:4;stroke-dasharray:none;stroke-dashoffset:0;stroke-opacity:1" /></flowRegion><flowPara
         id="flowPara6398-2-8-4"
         style="font-style:normal;font-variant:normal;font-weight:normal;font-stretch:normal;font-family:Carlito;-inkscape-font-specification:Carlito">ID generation</flowPara></flowRoot>    <flowRoot
       xml:space="preserve"
       id="flowRoot4316-8-5-8-0-6-1"
       style="font-style:normal;font-variant:normal;font-weight:normal;font-stretch:normal;font-size:32.89138412px;line-height:0.01%;font-family:Carlito;-inkscape-font-specification:Carlito;letter-spacing:0px;word-spacing:0px;fill:#000000;fill-opacity:1;stroke:none;stroke-width:2.46685386"
       transform="matrix(0.40563759,0,0,0.40511189,95.480514,459.76198)"><flowRegion
         id="flowRegion4318-2-1-4-2-4-4"
         style="font-style:normal;font-variant:normal;font-weight:normal;font-stretch:normal;font-size:32.89138412px;font-family:Carlito;-inkscape-font-specification:Carlito;stroke-width:2.46685386"><rect
           id="rect4320-4-7-7-9-8-4"
           width="331.33002"
           height="50.507633"
           x="236.3757"
           y="285.6564"
           style="font-style:normal;font-variant:normal;font-weight:normal;font-stretch:normal;font-size:32.89138412px;font-family:Carlito;-inkscape-font-specification:Carlito;stroke-width:2.46685386" /></flowRegion><flowPara
         id="flowPara4322-5-1-0-0-3-0"
         style="font-style:normal;font-variant:normal;font-weight:normal;font-stretch:normal;font-size:32.89138412px;line-height:1.25;font-family:Carlito;-inkscape-font-specification:Carlito;stroke-width:2.46685386">ID</flowPara></flowRoot>    <flowRoot
       xml:space="preserve"
       id="flowRoot6328-8-0-8-1"
       style="font-style:normal;font-variant:normal;font-weight:normal;font-stretch:normal;font-size:13.33333302px;line-height:125%;font-family:'Linux Biolinum';-inkscape-font-specification:'Linux Biolinum';letter-spacing:0px;word-spacing:0px;fill:#000000;fill-opacity:1;stroke:none;stroke-width:1px;stroke-linecap:butt;stroke-linejoin:miter;stroke-opacity:1"
       transform="translate(276.91035,538.0243)"><flowRegion
         id="flowRegion6330-5-1-9-5"><rect
           id="rect6332-6-4-3-2"
           width="62.142857"
           height="43.214287"
           x="-83.571426"
           y="6.0714288" /></flowRegion><flowPara
         id="flowPara6334-2-1-2-5"
         style="font-style:normal;font-variant:normal;font-weight:normal;font-stretch:normal;font-family:Carlito;-inkscape-font-specification:Carlito">r<flowSpan
   style="font-style:normal;font-variant:normal;font-weight:normal;font-stretch:normal;font-size:64.99999762%;font-family:Carlito;-inkscape-font-specification:Carlito;baseline-shift:sub"
   id="flowSpan6470-1">t</flowSpan></flowPara></flowRoot>    <path
       style="opacity:1;vector-effect:none;fill:none;fill-opacity:1;stroke:#000000;stroke-width:1.00157285;stroke-linecap:butt;stroke-linejoin:miter;stroke-miterlimit:7;stroke-dasharray:none;stroke-dashoffset:0;stroke-opacity:1;marker-end:url(#marker6946-6-9)"
       d="m 45.460949,559.98714 v 15.84725"
       id="path3841-9-8-2-2"
       inkscape:path-effect="#path-effect3843-7-3-3-8"
       inkscape:original-d="m 45.460949,559.98714 c 0,15.84725 0,15.84725 0,15.84725"
       inkscape:connector-curvature="0" />
    <flowRoot
       xml:space="preserve"
       id="flowRoot4316-8-5-8-0-6-1-7"
       style="font-style:normal;font-variant:normal;font-weight:normal;font-stretch:normal;font-size:32.89138412px;line-height:0.01%;font-family:Carlito;-inkscape-font-specification:Carlito;letter-spacing:0px;word-spacing:0px;fill:#000000;fill-opacity:1;stroke:none;stroke-width:2.46685386"
       transform="matrix(0.40563759,0,0,0.40511189,-56.519487,459.76198)"><flowRegion
         id="flowRegion4318-2-1-4-2-4-4-0"
         style="font-style:normal;font-variant:normal;font-weight:normal;font-stretch:normal;font-size:32.89138412px;font-family:Carlito;-inkscape-font-specification:Carlito;stroke-width:2.46685386"><rect
           id="rect4320-4-7-7-9-8-4-2"
           width="331.33002"
           height="50.507633"
           x="236.3757"
           y="285.6564"
           style="font-style:normal;font-variant:normal;font-weight:normal;font-stretch:normal;font-size:32.89138412px;font-family:Carlito;-inkscape-font-specification:Carlito;stroke-width:2.46685386" /></flowRegion><flowPara
         id="flowPara4322-5-1-0-0-3-0-4"
         style="font-style:normal;font-variant:normal;font-weight:normal;font-stretch:normal;font-size:32.89138412px;line-height:1.25;font-family:Carlito;-inkscape-font-specification:Carlito;stroke-width:2.46685386">ID</flowPara></flowRoot>    <flowRoot
       xml:space="preserve"
       id="flowRoot6328-8-0-8-1-9"
       style="font-style:normal;font-variant:normal;font-weight:normal;font-stretch:normal;font-size:13.33333302px;line-height:125%;font-family:'Linux Biolinum';-inkscape-font-specification:'Linux Biolinum';letter-spacing:0px;word-spacing:0px;fill:#000000;fill-opacity:1;stroke:none;stroke-width:1px;stroke-linecap:butt;stroke-linejoin:miter;stroke-opacity:1"
       transform="translate(124.91035,538.0243)"><flowRegion
         id="flowRegion6330-5-1-9-5-8"><rect
           id="rect6332-6-4-3-2-8"
           width="62.142857"
           height="43.214287"
           x="-83.571426"
           y="6.0714288" /></flowRegion><flowPara
         id="flowPara6334-2-1-2-5-0"
         style="font-style:normal;font-variant:normal;font-weight:normal;font-stretch:normal;font-family:Carlito;-inkscape-font-specification:Carlito">r<flowSpan
   style="font-style:normal;font-variant:normal;font-weight:normal;font-stretch:normal;font-size:64.99999762%;font-family:Carlito;-inkscape-font-specification:Carlito;baseline-shift:sub"
   id="flowSpan6470-1-2">t</flowSpan></flowPara></flowRoot>    <path
       style="opacity:1;vector-effect:none;fill:none;fill-opacity:1;fill-rule:evenodd;stroke:#000000;stroke-width:1.00157285;stroke-linecap:butt;stroke-linejoin:miter;stroke-miterlimit:7;stroke-dasharray:none;stroke-dashoffset:0;stroke-opacity:1;marker-end:url(#marker6543)"
       d="m 106.37903,495.61454 c 0,0 2.30909,5.95195 4.87532,7.43357 2.56624,1.48161 6.30909,-0.97625 8.87532,0.50536 2.56624,1.48162 2.30909,5.95196 4.87533,7.43358 2.56623,1.48161 6.30908,-0.97625 8.87532,0.50536 2.56623,1.48162 4.87532,7.43357 4.87532,7.43357"
       id="path6342"
       inkscape:connector-curvature="0"
       sodipodi:nodetypes="czzzzc" />
    <flowRoot
       xml:space="preserve"
       id="flowRoot4316-2-5"
       style="font-style:normal;font-variant:normal;font-weight:normal;font-stretch:normal;font-size:32.89138412px;line-height:0.01%;font-family:Carlito;-inkscape-font-specification:Carlito;letter-spacing:0px;word-spacing:0px;opacity:1;vector-effect:none;fill:#000000;fill-opacity:1;stroke:none;stroke-width:2.46685386;stroke-linecap:butt;stroke-linejoin:miter;stroke-miterlimit:4;stroke-dasharray:none;stroke-dashoffset:0;stroke-opacity:1"
       transform="matrix(0.40563759,0,0,0.40511189,-2.88281,403.48383)"><flowRegion
         id="flowRegion4318-3-3"
         style="font-style:normal;font-variant:normal;font-weight:normal;font-stretch:normal;font-size:32.89138412px;font-family:Carlito;-inkscape-font-specification:Carlito;vector-effect:none;fill:#000000;fill-opacity:1;stroke:none;stroke-width:2.46685386;stroke-linecap:butt;stroke-linejoin:miter;stroke-miterlimit:4;stroke-dasharray:none;stroke-dashoffset:0;stroke-opacity:1"><rect
           id="rect4320-2-0"
           width="333.35034"
           height="102.02541"
           x="236.3757"
           y="285.6564"
           style="font-style:normal;font-variant:normal;font-weight:normal;font-stretch:normal;font-size:32.89138412px;font-family:Carlito;-inkscape-font-specification:Carlito;vector-effect:none;fill:#000000;fill-opacity:1;stroke:none;stroke-width:2.46685386;stroke-linecap:butt;stroke-linejoin:miter;stroke-miterlimit:4;stroke-dasharray:none;stroke-dashoffset:0;stroke-opacity:1" /></flowRegion><flowPara
         style="font-style:normal;font-variant:normal;font-weight:normal;font-stretch:normal;font-size:32.89138412px;line-height:1.25;font-family:Carlito;-inkscape-font-specification:Carlito;text-align:center;text-anchor:middle;vector-effect:none;fill:#000000;fill-opacity:1;stroke:none;stroke-width:2.46685386;stroke-linecap:butt;stroke-linejoin:miter;stroke-miterlimit:4;stroke-dasharray:none;stroke-dashoffset:0;stroke-opacity:1"
         id="flowPara4403-1-0">leakage</flowPara></flowRoot>  </g>
</svg>
